<?xml version="1.0" encoding="UTF-8"?>
<svg width="200px" height="200px" viewBox="0 0 200 200" version="1.1" xmlns="http://www.w3.org/2000/svg" xmlns:xlink="http://www.w3.org/1999/xlink">
    <!-- Generator: Sketch 43.2 (39069) - http://www.bohemiancoding.com/sketch -->
    <title>belarus</title>
    <desc>Created with Sketch.</desc>
    <defs>
        <circle id="path-1" cx="100" cy="100" r="100"></circle>
    </defs>
    <g id="Page-1" stroke="none" stroke-width="1" fill="none" fill-rule="evenodd">
        <g id="flags" transform="translate(-2600.000000, -440.000000)">
            <g id="belarus" transform="translate(2600.000000, 440.000000)">
                <mask id="mask-2" fill="white">
                    <use xlink:href="#path-1"></use>
                </mask>
                <use id="border" fill="#FFFFFF" xlink:href="#path-1"></use>
                <circle id="white" fill="#FFFFFF" mask="url(#mask-2)" cx="100" cy="100" r="90"></circle>
                <path d="M50,174.844511 C64.3009801,184.417284 81.4985331,190 100,190 C139.186567,190 172.523738,164.955772 184.878829,130.000001 L184.878833,130 L50,130 L50,174.844511 L50,174.844511 L50,174.844511 L50,174.844511 L50,174.844511 Z" id="green" fill="#1AAF5D" mask="url(#mask-2)"></path>
                <path d="M50,25.155489 C64.3009801,15.582716 81.4985331,10 100,10 C149.70563,10 190,50.2943701 190,100 C190,110.519063 188.195374,120.616633 184.878829,130.000001 L184.878833,130 L50,130 L50,25.155489 L50,25.155489 L50,25.155489 L50,25.155489 L50,25.155489 Z" id="red" fill="#FF0000" mask="url(#mask-2)"></path>
                <path d="M14.9833984,66.5583977 L16.4074716,66.5583977 L16.4074716,63.866285 L17.8315448,63.866285 L17.8315448,61.1741723 L19.2556179,61.1741723 L19.2556179,58.4820596 L20.6796911,58.4820596 L20.6796911,55.789947 L22.1037642,55.789947 L22.1037642,53.0978343 L23.5278374,53.0978343 L23.5278374,55.789947 L24.9519105,55.789947 L24.9519105,58.4820596 L26.3759837,58.4820596 L26.3759837,61.1741723 L27.8000569,61.1741723 L27.8000569,63.866285 L29.22413,63.866285 L29.22413,66.5583977 L30.6482032,66.5583977 L30.6482032,69.2505104 L31.5026471,69.2505104 L31.5026471,80.0189612 L30.6482032,80.0189612 L30.6482032,82.7110739 L29.22413,82.7110739 L29.22413,85.4031866 L27.8000569,85.4031866 L27.8000569,88.0952993 L26.3759837,88.0952993 L26.3759837,90.787412 L24.9519105,90.787412 L24.9519105,93.4795247 L23.5278374,93.4795247 L23.5278374,100.479018 L20.6796911,100.479018 L20.6796911,98.8637501 L19.2556179,98.8637501 L19.2556179,96.1716374 L17.8315448,96.1716374 L17.8315448,93.4795247 L16.4074716,93.4795247 L16.4074716,90.787412 L14.9833984,90.787412 L14.9833984,82.7110739 L16.4074716,82.7110739 L16.4074716,85.4031866 L17.8315448,85.4031866 L17.8315448,88.0952993 L19.2556179,88.0952993 L19.2556179,90.787412 L20.6796911,90.787412 L20.6796911,88.0952993 L22.1037642,88.0952993 L22.1037642,85.4031866 L23.5278374,85.4031866 L23.5278374,82.7110739 L24.9519105,82.7110739 L24.9519105,80.0189612 L26.3759837,80.0189612 L26.3759837,77.3268485 L27.8000569,77.3268485 L27.8000569,74.6347358 L26.3759837,74.6347358 L26.3759837,71.9426231 L24.9519105,71.9426231 L24.9519105,69.2505104 L20.6796911,69.2505104 L20.6796911,71.9426231 L23.5278374,71.9426231 L23.5278374,74.6347358 L22.1037642,74.6347358 L22.1037642,77.3268485 L20.6796911,77.3268485 L20.6796911,80.0189612 L19.2556179,80.0189612 L19.2556179,77.3268485 L17.8315448,77.3268485 L17.8315448,74.6347358 L16.4074716,74.6347358 L16.4074716,71.9426231 L14.9833984,71.9426231 L14.9833984,66.5583977 L14.9833984,66.5583977 L14.9833984,66.5583977 L14.9833984,66.5583977 L14.9833984,66.5583977 Z M14.9833984,77.5526386 L16.5950325,77.5526386 L16.5950325,80.6094892 L14.9833984,80.6094892 L14.9833984,77.5526386 L14.9833984,77.5526386 L14.9833984,77.5526386 L14.9833984,77.5526386 L14.9833984,77.5526386 Z M30.6968301,85.194765 L31.6638105,85.194765 L31.6638105,88.2516155 L30.6968301,88.2516155 L30.6968301,85.194765 L30.6968301,85.194765 L30.6968301,85.194765 L30.6968301,85.194765 L30.6968301,85.194765 Z M27.8764705,90.5442534 L29.2711538,90.5442534 L29.2711538,93.3039102 L30.6658371,93.3039102 L30.6658371,96.0635669 L31.5026471,96.0635669 L31.5026471,100.479018 L30.6658371,100.479018 L30.6658371,98.8232237 L29.2711538,98.8232237 L29.2711538,96.0635669 L27.8764705,96.0635669 L27.8764705,90.5442534 L27.8764705,90.5442534 L27.8764705,90.5442534 L27.8764705,90.5442534 L27.8764705,90.5442534 Z M25.056111,98.9505924 L26.667745,98.9505924 L26.667745,100.784703 L25.056111,100.784703 L25.056111,98.9505924 L25.056111,98.9505924 L25.056111,98.9505924 L25.056111,98.9505924 L25.056111,98.9505924 Z" id="ornament" fill="#FF0000" mask="url(#mask-2)"></path>
                <path d="M47.2322413,36.2851562 L47.9574766,36.2851562 L47.9574766,41.6346447 L47.2322413,41.6346447 L47.2322413,36.2851562 L47.2322413,36.2851562 L47.2322413,36.2851562 L47.2322413,36.2851562 L47.2322413,36.2851562 Z M34.661496,42.3988573 L36.0313849,42.3988573 L36.0313849,45.1500228 L37.4012738,45.1500228 L37.4012738,47.9011883 L38.7711627,47.9011883 L38.7711627,50.6523538 L37.4012738,50.6523538 L37.4012738,53.4035193 L36.0313849,53.4035193 L36.0313849,56.1546848 L34.661496,56.1546848 L34.661496,53.4035193 L33.2916071,53.4035193 L33.2916071,50.6523538 L31.9217182,50.6523538 L31.9217182,47.9011883 L33.2916071,47.9011883 L33.2916071,45.1500228 L34.661496,45.1500228 L34.661496,42.3988573 L34.661496,42.3988573 L34.661496,42.3988573 L34.661496,42.3988573 L34.661496,42.3988573 Z M34.7420777,47.7483458 L35.9508032,47.7483458 L35.9508032,50.8051963 L34.7420777,50.8051963 L34.7420777,47.7483458 L34.7420777,47.7483458 L34.7420777,47.7483458 L34.7420777,47.7483458 L34.7420777,47.7483458 Z M43.1225746,42.3988573 L44.4924635,42.3988573 L44.4924635,45.1500228 L45.8623524,45.1500228 L45.8623524,47.9011883 L47.2322413,47.9011883 L47.2322413,50.6523538 L45.8623524,50.6523538 L45.8623524,53.4035193 L44.4924635,53.4035193 L44.4924635,56.1546848 L43.1225746,56.1546848 L43.1225746,53.4035193 L41.7526856,53.4035193 L41.7526856,50.6523538 L40.3827967,50.6523538 L40.3827967,47.9011883 L41.7526856,47.9011883 L41.7526856,45.1500228 L43.1225746,45.1500228 L43.1225746,42.3988573 L43.1225746,42.3988573 L43.1225746,42.3988573 L43.1225746,42.3988573 L43.1225746,42.3988573 Z M42.8002477,47.7483458 L44.0089733,47.7483458 L44.0089733,50.8051963 L42.8002477,50.8051963 L42.8002477,47.7483458 L42.8002477,47.7483458 L42.8002477,47.7483458 L42.8002477,47.7483458 L42.8002477,47.7483458 Z M31.9217182,58.4473227 L33.1304437,58.4473227 L33.1304437,61.5041733 L31.9217182,61.5041733 L31.9217182,58.4473227 L31.9217182,58.4473227 L31.9217182,58.4473227 L31.9217182,58.4473227 L31.9217182,58.4473227 Z M47.2322413,56.1546848 L47.9574766,56.1546848 L47.9574766,61.5041733 L47.2322413,61.5041733 L47.2322413,56.1546848 L47.2322413,56.1546848 L47.2322413,56.1546848 L47.2322413,56.1546848 L47.2322413,56.1546848 Z" id="ornament" fill="#FF0000" mask="url(#mask-2)"></path>
                <path d="M31.7605542,66.5583977 L33.1846273,66.5583977 L33.1846273,63.866285 L34.6087005,63.866285 L34.6087005,61.1741723 L36.0327736,61.1741723 L36.0327736,58.4820596 L37.4568468,58.4820596 L37.4568468,55.789947 L38.8809199,55.789947 L38.8809199,53.0978343 L40.3049931,53.0978343 L40.3049931,55.789947 L41.7290663,55.789947 L41.7290663,58.4820596 L43.1531394,58.4820596 L43.1531394,61.1741723 L44.5772126,61.1741723 L44.5772126,63.866285 L46.0012857,63.866285 L46.0012857,66.5583977 L47.4253589,66.5583977 L47.4253589,69.2505104 L48.2798028,69.2505104 L48.2798028,80.0189612 L47.4253589,80.0189612 L47.4253589,82.7110739 L46.0012857,82.7110739 L46.0012857,85.4031866 L44.5772126,85.4031866 L44.5772126,88.0952993 L43.1531394,88.0952993 L43.1531394,90.787412 L41.7290663,90.787412 L41.7290663,93.4795247 L40.3049931,93.4795247 L40.3049931,100.479018 L37.4568468,100.479018 L37.4568468,98.8637501 L36.0327736,98.8637501 L36.0327736,96.1716374 L34.6087005,96.1716374 L34.6087005,93.4795247 L33.1846273,93.4795247 L33.1846273,90.787412 L31.7605542,90.787412 L31.7605542,82.7110739 L33.1846273,82.7110739 L33.1846273,85.4031866 L34.6087005,85.4031866 L34.6087005,88.0952993 L36.0327736,88.0952993 L36.0327736,90.787412 L37.4568468,90.787412 L37.4568468,88.0952993 L38.8809199,88.0952993 L38.8809199,85.4031866 L40.3049931,85.4031866 L40.3049931,82.7110739 L41.7290663,82.7110739 L41.7290663,80.0189612 L43.1531394,80.0189612 L43.1531394,77.3268485 L44.5772126,77.3268485 L44.5772126,74.6347358 L43.1531394,74.6347358 L43.1531394,71.9426231 L41.7290663,71.9426231 L41.7290663,69.2505104 L37.4568468,69.2505104 L37.4568468,71.9426231 L40.3049931,71.9426231 L40.3049931,74.6347358 L38.8809199,74.6347358 L38.8809199,77.3268485 L37.4568468,77.3268485 L37.4568468,80.0189612 L36.0327736,80.0189612 L36.0327736,77.3268485 L34.6087005,77.3268485 L34.6087005,74.6347358 L33.1846273,74.6347358 L33.1846273,71.9426231 L31.7605542,71.9426231 L31.7605542,66.5583977 L31.7605542,66.5583977 L31.7605542,66.5583977 L31.7605542,66.5583977 L31.7605542,66.5583977 Z M31.7605542,77.5526386 L33.3721882,77.5526386 L33.3721882,80.6094892 L31.7605542,80.6094892 L31.7605542,77.5526386 L31.7605542,77.5526386 L31.7605542,77.5526386 L31.7605542,77.5526386 L31.7605542,77.5526386 Z M47.4739858,85.194765 L48.4409662,85.194765 L48.4409662,88.2516155 L47.4739858,88.2516155 L47.4739858,85.194765 L47.4739858,85.194765 L47.4739858,85.194765 L47.4739858,85.194765 L47.4739858,85.194765 Z M44.6536263,90.5442534 L46.0483095,90.5442534 L46.0483095,93.3039102 L47.4429928,93.3039102 L47.4429928,96.0635669 L48.2798028,96.0635669 L48.2798028,100.479018 L47.4429928,100.479018 L47.4429928,98.8232237 L46.0483095,98.8232237 L46.0483095,96.0635669 L44.6536263,96.0635669 L44.6536263,90.5442534 L44.6536263,90.5442534 L44.6536263,90.5442534 L44.6536263,90.5442534 L44.6536263,90.5442534 Z M41.8332667,98.9505924 L43.4449008,98.9505924 L43.4449008,100.784703 L41.8332667,100.784703 L41.8332667,98.9505924 L41.8332667,98.9505924 L41.8332667,98.9505924 L41.8332667,98.9505924 L41.8332667,98.9505924 Z" id="ornament" fill="#FF0000" mask="url(#mask-2)" transform="translate(40.100760, 76.941269) scale(-1, 1) translate(-40.100760, -76.941269) "></path>
                <path d="M31.7605538,112.869683 L33.1846269,112.869683 L33.1846269,110.17757 L34.6087001,110.17757 L34.6087001,107.485457 L36.0327732,107.485457 L36.0327732,104.793344 L37.4568464,104.793344 L37.4568464,102.101232 L38.8809195,102.101232 L38.8809195,99.409119 L40.3049927,99.409119 L40.3049927,102.101232 L41.7290659,102.101232 L41.7290659,104.793344 L43.153139,104.793344 L43.153139,107.485457 L44.5772122,107.485457 L44.5772122,110.17757 L46.0012853,110.17757 L46.0012853,112.869683 L47.4253585,112.869683 L47.4253585,115.561795 L48.2798024,115.561795 L48.2798024,126.330246 L47.4253585,126.330246 L47.4253585,129.022359 L46.0012853,129.022359 L46.0012853,131.714471 L44.5772122,131.714471 L44.5772122,134.406584 L43.153139,134.406584 L43.153139,137.098697 L41.7290659,137.098697 L41.7290659,139.79081 L40.3049927,139.79081 L40.3049927,146.790303 L37.4568464,146.790303 L37.4568464,145.175035 L36.0327732,145.175035 L36.0327732,142.482922 L34.6087001,142.482922 L34.6087001,139.79081 L33.1846269,139.79081 L33.1846269,137.098697 L31.7605538,137.098697 L31.7605538,129.022359 L33.1846269,129.022359 L33.1846269,131.714471 L34.6087001,131.714471 L34.6087001,134.406584 L36.0327732,134.406584 L36.0327732,137.098697 L37.4568464,137.098697 L37.4568464,134.406584 L38.8809195,134.406584 L38.8809195,131.714471 L40.3049927,131.714471 L40.3049927,129.022359 L41.7290659,129.022359 L41.7290659,126.330246 L43.153139,126.330246 L43.153139,123.638133 L44.5772122,123.638133 L44.5772122,120.946021 L43.153139,120.946021 L43.153139,118.253908 L41.7290659,118.253908 L41.7290659,115.561795 L37.4568464,115.561795 L37.4568464,118.253908 L40.3049927,118.253908 L40.3049927,120.946021 L38.8809195,120.946021 L38.8809195,123.638133 L37.4568464,123.638133 L37.4568464,126.330246 L36.0327732,126.330246 L36.0327732,123.638133 L34.6087001,123.638133 L34.6087001,120.946021 L33.1846269,120.946021 L33.1846269,118.253908 L31.7605538,118.253908 L31.7605538,112.869683 L31.7605538,112.869683 L31.7605538,112.869683 L31.7605538,112.869683 L31.7605538,112.869683 Z M31.7605538,123.863923 L33.3721878,123.863923 L33.3721878,126.920774 L31.7605538,126.920774 L31.7605538,123.863923 L31.7605538,123.863923 L31.7605538,123.863923 L31.7605538,123.863923 L31.7605538,123.863923 Z M47.4739854,131.50605 L48.4409658,131.50605 L48.4409658,134.5629 L47.4739854,134.5629 L47.4739854,131.50605 L47.4739854,131.50605 L47.4739854,131.50605 L47.4739854,131.50605 L47.4739854,131.50605 Z M44.6536259,136.855538 L46.0483091,136.855538 L46.0483091,139.615195 L47.4429924,139.615195 L47.4429924,142.374852 L48.2798024,142.374852 L48.2798024,146.790303 L47.4429924,146.790303 L47.4429924,145.134508 L46.0483091,145.134508 L46.0483091,142.374852 L44.6536259,142.374852 L44.6536259,136.855538 L44.6536259,136.855538 L44.6536259,136.855538 L44.6536259,136.855538 L44.6536259,136.855538 Z M41.8332663,145.261877 L43.4449004,145.261877 L43.4449004,147.095988 L41.8332663,147.095988 L41.8332663,145.261877 L41.8332663,145.261877 L41.8332663,145.261877 L41.8332663,145.261877 L41.8332663,145.261877 Z" id="ornament" fill="#FF0000" mask="url(#mask-2)" transform="translate(40.100760, 123.252553) scale(-1, -1) translate(-40.100760, -123.252553) "></path>
                <path d="M47.2322413,142.510712 L47.9574766,142.510712 L47.9574766,147.8602 L47.2322413,147.8602 L47.2322413,142.510712 L47.2322413,142.510712 L47.2322413,142.510712 L47.2322413,142.510712 L47.2322413,142.510712 Z M34.661496,148.624413 L36.0313849,148.624413 L36.0313849,151.375578 L37.4012738,151.375578 L37.4012738,154.126744 L38.7711627,154.126744 L38.7711627,156.877909 L37.4012738,156.877909 L37.4012738,159.629075 L36.0313849,159.629075 L36.0313849,162.38024 L34.661496,162.38024 L34.661496,159.629075 L33.2916071,159.629075 L33.2916071,156.877909 L31.9217182,156.877909 L31.9217182,154.126744 L33.2916071,154.126744 L33.2916071,151.375578 L34.661496,151.375578 L34.661496,148.624413 L34.661496,148.624413 L34.661496,148.624413 L34.661496,148.624413 L34.661496,148.624413 Z M34.7420777,153.973901 L35.9508032,153.973901 L35.9508032,157.030752 L34.7420777,157.030752 L34.7420777,153.973901 L34.7420777,153.973901 L34.7420777,153.973901 L34.7420777,153.973901 L34.7420777,153.973901 Z M43.1225746,148.624413 L44.4924635,148.624413 L44.4924635,151.375578 L45.8623524,151.375578 L45.8623524,154.126744 L47.2322413,154.126744 L47.2322413,156.877909 L45.8623524,156.877909 L45.8623524,159.629075 L44.4924635,159.629075 L44.4924635,162.38024 L43.1225746,162.38024 L43.1225746,159.629075 L41.7526856,159.629075 L41.7526856,156.877909 L40.3827967,156.877909 L40.3827967,154.126744 L41.7526856,154.126744 L41.7526856,151.375578 L43.1225746,151.375578 L43.1225746,148.624413 L43.1225746,148.624413 L43.1225746,148.624413 L43.1225746,148.624413 L43.1225746,148.624413 Z M42.8002477,153.973901 L44.0089733,153.973901 L44.0089733,157.030752 L42.8002477,157.030752 L42.8002477,153.973901 L42.8002477,153.973901 L42.8002477,153.973901 L42.8002477,153.973901 L42.8002477,153.973901 Z M31.9217182,164.672878 L33.1304437,164.672878 L33.1304437,167.729729 L31.9217182,167.729729 L31.9217182,164.672878 L31.9217182,164.672878 L31.9217182,164.672878 L31.9217182,164.672878 L31.9217182,164.672878 Z M47.2322413,162.38024 L47.9574766,162.38024 L47.9574766,167.729729 L47.2322413,167.729729 L47.2322413,162.38024 L47.2322413,162.38024 L47.2322413,162.38024 L47.2322413,162.38024 L47.2322413,162.38024 Z" id="ornament" fill="#FF0000" mask="url(#mask-2)" transform="translate(39.939597, 155.120221) scale(1, -1) translate(-39.939597, -155.120221) "></path>
                <path d="M14.9833984,112.869683 L16.4074716,112.869683 L16.4074716,110.17757 L17.8315448,110.17757 L17.8315448,107.485457 L19.2556179,107.485457 L19.2556179,104.793344 L20.6796911,104.793344 L20.6796911,102.101232 L22.1037642,102.101232 L22.1037642,99.409119 L23.5278374,99.409119 L23.5278374,102.101232 L24.9519105,102.101232 L24.9519105,104.793344 L26.3759837,104.793344 L26.3759837,107.485457 L27.8000569,107.485457 L27.8000569,110.17757 L29.22413,110.17757 L29.22413,112.869683 L30.6482032,112.869683 L30.6482032,115.561795 L31.5026471,115.561795 L31.5026471,126.330246 L30.6482032,126.330246 L30.6482032,129.022359 L29.22413,129.022359 L29.22413,131.714471 L27.8000569,131.714471 L27.8000569,134.406584 L26.3759837,134.406584 L26.3759837,137.098697 L24.9519105,137.098697 L24.9519105,139.79081 L23.5278374,139.79081 L23.5278374,146.790303 L20.6796911,146.790303 L20.6796911,145.175035 L19.2556179,145.175035 L19.2556179,142.482922 L17.8315448,142.482922 L17.8315448,139.79081 L16.4074716,139.79081 L16.4074716,137.098697 L14.9833984,137.098697 L14.9833984,129.022359 L16.4074716,129.022359 L16.4074716,131.714471 L17.8315448,131.714471 L17.8315448,134.406584 L19.2556179,134.406584 L19.2556179,137.098697 L20.6796911,137.098697 L20.6796911,134.406584 L22.1037642,134.406584 L22.1037642,131.714471 L23.5278374,131.714471 L23.5278374,129.022359 L24.9519105,129.022359 L24.9519105,126.330246 L26.3759837,126.330246 L26.3759837,123.638133 L27.8000569,123.638133 L27.8000569,120.946021 L26.3759837,120.946021 L26.3759837,118.253908 L24.9519105,118.253908 L24.9519105,115.561795 L20.6796911,115.561795 L20.6796911,118.253908 L23.5278374,118.253908 L23.5278374,120.946021 L22.1037642,120.946021 L22.1037642,123.638133 L20.6796911,123.638133 L20.6796911,126.330246 L19.2556179,126.330246 L19.2556179,123.638133 L17.8315448,123.638133 L17.8315448,120.946021 L16.4074716,120.946021 L16.4074716,118.253908 L14.9833984,118.253908 L14.9833984,112.869683 L14.9833984,112.869683 L14.9833984,112.869683 L14.9833984,112.869683 L14.9833984,112.869683 Z M14.9833984,123.863923 L16.5950325,123.863923 L16.5950325,126.920774 L14.9833984,126.920774 L14.9833984,123.863923 L14.9833984,123.863923 L14.9833984,123.863923 L14.9833984,123.863923 L14.9833984,123.863923 Z M30.6968301,131.50605 L31.6638105,131.50605 L31.6638105,134.5629 L30.6968301,134.5629 L30.6968301,131.50605 L30.6968301,131.50605 L30.6968301,131.50605 L30.6968301,131.50605 L30.6968301,131.50605 Z M27.8764705,136.855538 L29.2711538,136.855538 L29.2711538,139.615195 L30.6658371,139.615195 L30.6658371,142.374852 L31.5026471,142.374852 L31.5026471,146.790303 L30.6658371,146.790303 L30.6658371,145.134508 L29.2711538,145.134508 L29.2711538,142.374852 L27.8764705,142.374852 L27.8764705,136.855538 L27.8764705,136.855538 L27.8764705,136.855538 L27.8764705,136.855538 L27.8764705,136.855538 Z M25.056111,145.261877 L26.667745,145.261877 L26.667745,147.095988 L25.056111,147.095988 L25.056111,145.261877 L25.056111,145.261877 L25.056111,145.261877 L25.056111,145.261877 L25.056111,145.261877 Z" id="ornament" fill="#FF0000" mask="url(#mask-2)" transform="translate(23.323604, 123.252553) scale(1, -1) translate(-23.323604, -123.252553) "></path>
            </g>
        </g>
    </g>
</svg>