<?xml version="1.0" encoding="UTF-8"?>
<svg width="200px" height="200px" viewBox="0 0 200 200" version="1.1" xmlns="http://www.w3.org/2000/svg" xmlns:xlink="http://www.w3.org/1999/xlink">
    <!-- Generator: Sketch 43.2 (39069) - http://www.bohemiancoding.com/sketch -->
    <title>bosnia_and_herzegovina</title>
    <desc>Created with Sketch.</desc>
    <defs></defs>
    <g id="Page-1" stroke="none" stroke-width="1" fill="none" fill-rule="evenodd">
        <g id="flags" transform="translate(-1790.000000, -710.000000)">
            <g id="bosnia_and_herzegovina" transform="translate(1790.000000, 710.000000)">
                <circle id="Oval-path" fill="#FFFFFF" cx="100" cy="100" r="100"></circle>
                <path d="M148.928917,175.550487 C134.843812,184.691198 118.041875,190 100,190 C50.2943701,190 10,149.70563 10,100 C10,67.426743 27.3043614,38.8951386 53.2217222,23.0965487 L148.928917,175.550487 L148.928917,175.550487 Z M158,168.821199 C177.569456,152.311866 190,127.607588 190,100 C190,72.3924118 177.569456,47.6881345 158,31.1788006 L158,168.821199 L158,168.821199 Z" id="blue" fill="#007BCA"></path>
                <path d="M158,31.1788006 L158,168.821199 C155.124813,171.246787 152.095525,173.495477 148.928917,175.550487 L53.2217222,23.0965487 C66.8533309,14.7870531 82.867627,10 100,10 C122.098042,10 142.33595,17.9641748 158,31.1788006 L158,31.1788006 Z" id="yellow" fill="#F2C500"></path>
                <path d="M39.1043771,33.7292446 L42.2499997,36.9931559 L41.0106434,44.6850392 L47.4999989,41.0534242 L53.9893547,44.6850394 L52.7499982,36.9931574 L58,31.5457398 L50.7446785,30.4235042 L48.7100909,26.0351907 C47.4650455,26.9001768 46.2428818,27.7957925 45.0446907,28.7209469 L44.255322,30.4235025 L42.5962989,30.6801152 C41.40611,31.6668134 40.2417478,32.683578 39.1043771,33.7292446 L39.1043771,33.7292446 L39.1043771,33.7292446 Z M141.19051,180.042085 L140.749998,177.308118 L146,171.8607 L138.744679,170.738465 L135.499999,163.740157 L132.255322,170.738463 L125,171.860694 L130.25,177.308116 L129.010644,184.999999 L135.499999,181.368385 L136.860587,182.129806 C138.325104,181.471501 139.768831,180.775175 141.19051,180.042085 L141.19051,180.042085 L141.19051,180.042085 Z M60.4999989,63.7305893 L54.0106434,67.3622039 L55.2499997,59.6703211 L50,54.2228994 L57.255322,53.1006677 L60.4999993,46.1023622 L63.7446785,53.1006694 L71,54.222905 L65.7499982,59.6703226 L66.9893547,67.3622047 L60.4999989,63.7305893 L60.4999989,63.7305893 L60.4999989,63.7305893 Z M72.4999989,82.1557862 L66.0106434,85.7874007 L67.2499997,78.0955177 L62,72.6480959 L69.255322,71.5258645 L72.4999993,64.5275591 L75.7446785,71.5258662 L83,72.6481018 L77.7499982,78.0955194 L78.9893547,85.7874016 L72.4999989,82.1557862 L72.4999989,82.1557862 L72.4999989,82.1557862 Z M85.499999,103.415629 L79.0106434,107.047243 L80.2499997,99.3553603 L75,93.9079384 L82.2553221,92.785707 L85.4999994,85.7874016 L88.7446786,92.7857087 L96,93.9079443 L90.7499983,99.3553619 L91.9893548,107.047244 L85.499999,103.415629 L85.499999,103.415629 L85.499999,103.415629 Z M98.4999992,123.258148 L92.0106436,126.889763 L93.2500001,119.19788 L88,113.750458 L95.2553222,112.628227 L98.4999992,105.629921 L101.744679,112.628228 L109,113.750464 L103.749998,119.197882 L104.989355,126.889764 L98.4999992,123.258148 L98.4999992,123.258148 L98.4999992,123.258148 Z M110.499999,143.100668 L104.010643,146.732283 L105.25,139.0404 L100,133.592978 L107.255322,132.470746 L110.499999,125.472441 L113.744678,132.470748 L121,133.592984 L115.749998,139.040401 L116.989355,146.732283 L110.499999,143.100668 L110.499999,143.100668 L110.499999,143.100668 Z M123.499999,161.525865 L117.010643,165.157479 L118.25,157.465596 L113,152.018175 L120.255322,150.895943 L123.499999,143.897638 L126.744679,150.895945 L134,152.018181 L128.749998,157.465598 L129.989355,165.15748 L123.499999,161.525865 L123.499999,161.525865 L123.499999,161.525865 Z" id="star" fill="#FFFFFF"></path>
            </g>
        </g>
    </g>
</svg>