<?xml version="1.0" encoding="UTF-8"?>
<svg width="200px" height="200px" viewBox="0 0 200 200" version="1.1" xmlns="http://www.w3.org/2000/svg" xmlns:xlink="http://www.w3.org/1999/xlink">
    <!-- Generator: Sketch 43.2 (39069) - http://www.bohemiancoding.com/sketch -->
    <title>cameroon</title>
    <desc>Created with Sketch.</desc>
    <defs>
        <circle id="path-1" cx="100" cy="100" r="100"></circle>
    </defs>
    <g id="Page-1" stroke="none" stroke-width="1" fill="none" fill-rule="evenodd">
        <g id="flags" transform="translate(-1520.000000, -980.000000)">
            <g id="cameroon" transform="translate(1520.000000, 980.000000)">
                <mask id="mask-2" fill="white">
                    <use xlink:href="#path-1"></use>
                </mask>
                <use id="border" fill="#FFFFFF" xlink:href="#path-1"></use>
                <path d="M10,100 C10,139.186565 35.0442286,172.523736 69.9999996,184.878829 L70,15.1211676 C35.0442286,27.4762637 10,60.8134354 10,100 Z" id="green" fill="#1AAF5D" mask="url(#mask-2)"></path>
                <path d="M190,100 C190,60.8134354 164.955771,27.4762637 130,15.1211714 L130,184.878832 C164.955771,172.523736 190,139.186565 190,100 Z" id="yellow" fill="#F2C500" mask="url(#mask-2)"></path>
                <path d="M70,15.1205162 L70,184.879484 C79.3825591,188.19561 89.479186,190 99.9972382,190 C110.517354,190 120.61588,188.194901 130,184.877528 L130,15.1224687 C120.61588,11.8050986 110.517354,10 99.9972382,10 C89.479186,10 79.3825591,11.8043904 69.9999996,15.12052 L70,15.1205162 L70,15.1205162 Z" id="red" fill="#FF0000" mask="url(#mask-2)"></path>
                <polygon id="star" fill="#F2C500" mask="url(#mask-2)" points="97.9999996 110 86.8320811 116.180341 88.9649632 103.09017 79.9299261 93.8196606 92.4160419 91.9098287 98.0000002 80 103.583962 91.9098316 116.070077 93.8196701 107.035036 103.090173 109.167919 116.180341"></polygon>
            </g>
        </g>
    </g>
</svg>