<?xml version="1.0" encoding="UTF-8"?>
<svg width="200px" height="200px" viewBox="0 0 200 200" version="1.1" xmlns="http://www.w3.org/2000/svg" xmlns:xlink="http://www.w3.org/1999/xlink">
    <!-- Generator: Sketch 43.2 (39069) - http://www.bohemiancoding.com/sketch -->
    <title>guyana</title>
    <desc>Created with Sketch.</desc>
    <defs>
        <circle id="path-1" cx="100" cy="100" r="100"></circle>
    </defs>
    <g id="Page-1" stroke="none" stroke-width="1" fill="none" fill-rule="evenodd">
        <g id="flags" transform="translate(-170.000000, -2600.000000)">
            <g id="guyana" transform="translate(170.000000, 2600.000000)">
                <mask id="mask-2" fill="white">
                    <use xlink:href="#path-1"></use>
                </mask>
                <use id="border" fill="#FFFFFF" xlink:href="#path-1"></use>
                <circle id="white" fill="#FFFFFF" mask="url(#mask-2)" cx="100" cy="100" r="90"></circle>
                <path d="M32.2887643,40.6278478 C36.3807963,35.9547851 40.947885,31.7106711 45.9143338,27.9714446 L185.80373,74.6012432 C188.16116,82.6561234 189.425877,91.1798938 189.425877,100 C189.425877,108.820106 188.16116,117.343877 185.80373,125.398757 L185.80373,125.398757 L45.9143338,172.028555 C41.0270462,168.348929 36.5264893,164.180382 32.4847974,159.59528 L117.223704,100.180288 L32.2887643,40.6278478 L32.2887643,40.6278478 L32.2887643,40.6278478 L32.2887643,40.6278478 L32.2887643,40.6278478 Z" id="yellow" fill="#F2C500" mask="url(#mask-2)"></path>
                <path d="M29.7048253,43.7933763 C30.5582626,42.7274069 31.435443,41.6812709 32.335565,40.6557699 L32.335565,40.6557699 L117,100 L32.335565,159.34423 C31.435443,158.318729 30.5582626,157.272593 29.7048253,156.206624 L110,100 L29.704836,43.7933852 L29.704836,43.7933852 L29.7048253,43.7933763 L29.7048253,43.7933763 L29.7048253,43.7933763 Z" id="black" fill="#000000" mask="url(#mask-2)"></path>
                <path d="M29.7048246,43.7933772 C17.3742242,59.1946762 10,78.7361664 10,100 C10,121.263834 17.3742242,140.805324 29.7048246,156.206623 L110,100 L29.7048246,43.7933772 L29.7048246,43.7933772 L29.7048246,43.7933772 L29.7048246,43.7933772 L29.7048246,43.7933772 Z" id="red" fill="#FF0000" mask="url(#mask-2)"></path>
                <path d="M51.8952438,23.9236858 L184.091136,67.8583661 C171.15214,34.0258182 138.38313,10 100.002757,10 C82.3102162,10 65.810098,15.1055231 51.8952438,23.9236858 C51.8952438,23.9236858 65.810098,15.1055231 51.8952438,23.9236858 L51.8952438,23.9236858 Z M51.7782934,176.002074 C65.7176067,184.865815 82.2606235,190 100.002757,190 C138.586947,190 171.500019,165.718328 184.295592,131.601808 L51.7782934,176.002074 L51.7782934,176.002074 Z" id="green" fill="#1AAF5D" mask="url(#mask-2)" transform="translate(118.036943, 100.000000) scale(1, -1) translate(-118.036943, -100.000000) "></path>
            </g>
        </g>
    </g>
</svg>