<?xml version="1.0" encoding="UTF-8"?>
<svg width="200px" height="200px" viewBox="0 0 200 200" version="1.1" xmlns="http://www.w3.org/2000/svg" xmlns:xlink="http://www.w3.org/1999/xlink">
    <!-- Generator: Sketch 43.2 (39069) - http://www.bohemiancoding.com/sketch -->
    <title>hungary</title>
    <desc>Created with Sketch.</desc>
    <defs>
        <circle id="path-1" cx="100" cy="100" r="100"></circle>
    </defs>
    <g id="Page-1" stroke="none" stroke-width="1" fill="none" fill-rule="evenodd">
        <g id="flags" transform="translate(-1250.000000, -2600.000000)">
            <g id="hungary" transform="translate(1250.000000, 2600.000000)">
                <mask id="mask-2" fill="white">
                    <use xlink:href="#path-1"></use>
                </mask>
                <use id="border" fill="#FFFFFF" xlink:href="#path-1"></use>
                <path d="M184.878829,130 C172.523738,164.955772 139.186567,190 100,190 C60.8134331,190 27.4762623,164.955772 15.1211708,130 L184.878833,130 L184.878833,130 L184.878829,130 L184.878829,130 L184.878829,130 Z" id="green" fill="#1AAF5D" mask="url(#mask-2)"></path>
                <path d="M184.878829,130.000001 C188.195374,120.616633 190,110.519063 190,100 C190,89.480937 188.195374,79.3833673 184.878829,69.9999996 L15.121167,70 C11.8046265,79.3833673 10,89.480937 10,100 C10,110.519063 11.8046265,120.616633 15.1211708,130 L184.878833,130 L184.878833,130 L184.878829,130.000001 L184.878829,130.000001 L184.878829,130.000001 Z" id="white" fill="#FFFFFF" mask="url(#mask-2)"></path>
                <path d="M184.878829,69.9999996 C172.523738,35.0442275 139.186567,10 100,10 C60.8134331,10 27.4762623,35.0442275 15.1211708,69.9999996 L184.878833,70 L184.878833,70 L184.878829,69.9999996 L184.878829,69.9999996 L184.878829,69.9999996 Z" id="red" fill="#FF0000" mask="url(#mask-2)"></path>
            </g>
        </g>
    </g>
</svg>