<?xml version="1.0" encoding="UTF-8"?>
<svg width="200px" height="200px" viewBox="0 0 200 200" version="1.1" xmlns="http://www.w3.org/2000/svg" xmlns:xlink="http://www.w3.org/1999/xlink">
    <!-- Generator: Sketch 43.2 (39069) - http://www.bohemiancoding.com/sketch -->
    <title>jordan</title>
    <desc>Created with Sketch.</desc>
    <defs>
        <circle id="path-1" cx="100" cy="100" r="100"></circle>
    </defs>
    <g id="Page-1" stroke="none" stroke-width="1" fill="none" fill-rule="evenodd">
        <g id="flags" transform="translate(-2060.000000, -2870.000000)">
            <g id="jordan" transform="translate(2060.000000, 2870.000000)">
                <mask id="mask-2" fill="white">
                    <use xlink:href="#path-1"></use>
                </mask>
                <use id="border" fill="#FFFFFF" xlink:href="#path-1"></use>
                <path d="M184.873467,130 L70,130 L26.3938522,151.803074 C42.6842852,174.908013 69.5783535,190 99.9972382,190 C139.182603,190 172.51875,164.955772 184.873463,130 L184.873467,130 Z" id="green" fill="#1AAF5D" mask="url(#mask-2)"></path>
                <path d="M15.1210098,130 L184.873467,130 C188.189905,120.616633 189.994476,110.519063 189.994476,100 C189.994476,89.480937 188.189905,79.3833673 184.873463,69.9999996 L15.1210098,70 C11.8045711,79.3833673 10,89.480937 10,100 C10,110.519063 11.8045711,120.616633 15.1210136,130 L15.1210098,130 Z" id="white" fill="#FFFFFF" mask="url(#mask-2)"></path>
                <path d="M184.873467,70 L70,70 L26.3938522,48.1969261 C42.6842852,25.0919874 69.5783535,10 99.9972382,10 C139.182603,10 172.51875,35.0442275 184.873463,69.9999996 L184.873467,70 Z" id="black" fill="#000000" mask="url(#mask-2)"></path>
                <path d="M26.3938522,48.1969261 L130,100 L26.3938522,151.803074 C16.0659067,137.154811 10,119.285812 10,100 C10,80.7141882 16.0659067,62.8451892 26.3938522,48.1969261 L26.3938522,48.1969261 Z" id="red" fill="#FF0000" mask="url(#mask-2)"></path>
                <polygon id="star" fill="#FFFFFF" mask="url(#mask-2)" points="48.5 87 51.1702512 95.5158541 59.3261594 92.3476812 54.4999999 99.7986046 62 104.363812 53.3116263 105.139107 54.5080653 114 48.5 107.515854 42.4919347 114 43.6883737 105.139107 35 104.363812 42.5000001 99.7986046 37.6738406 92.3476812 45.8297488 95.5158541 48.5 87 48.5 87 48.5 87"></polygon>
            </g>
        </g>
    </g>
</svg>