<?xml version="1.0" encoding="UTF-8"?>
<svg width="200px" height="200px" viewBox="0 0 200 200" version="1.1" xmlns="http://www.w3.org/2000/svg" xmlns:xlink="http://www.w3.org/1999/xlink">
    <!-- Generator: Sketch 43.2 (39069) - http://www.bohemiancoding.com/sketch -->
    <title>libya</title>
    <desc>Created with Sketch.</desc>
    <defs>
        <circle id="path-1" cx="100" cy="100" r="100"></circle>
    </defs>
    <g id="Page-1" stroke="none" stroke-width="1" fill="none" fill-rule="evenodd">
        <g id="flags" transform="translate(-2600.000000, -3140.000000)">
            <g id="libya" transform="translate(2600.000000, 3140.000000)">
                <mask id="mask-2" fill="white">
                    <use xlink:href="#path-1"></use>
                </mask>
                <use id="border" fill="#FFFFFF" xlink:href="#path-1"></use>
                <path d="M100,10 C66.6873043,10 37.6018396,28.0989271 22.0404121,54.9999749 L177.959602,55 C162.39816,28.0989271 133.312696,10 100,10 Z" id="red" fill="#1AAF5D" mask="url(#mask-2)"></path>
                <path d="M177.959588,145.000025 C162.39816,171.901073 133.312696,190 100,190 C66.6873043,190 37.6018396,171.901073 22.0404121,145.000025 L177.959602,145 L177.959588,145.000025 Z" id="green" fill="#FF0000" mask="url(#mask-2)"></path>
                <path d="M190,100 C190,83.6070682 185.617252,68.2377821 177.959588,54.9999749 L22.0403976,55 C14.3827484,68.2377821 10,83.6070682 10,100 C10,116.392932 14.3827484,131.762218 22.0404121,145.000025 L177.959602,145 C185.617252,131.762218 190,116.392932 190,100 Z" id="black" fill="#000000" mask="url(#mask-2)"></path>
                <path d="M113.085173,128.200097 C107.283852,131.632294 100.346581,133.628183 92.8930643,133.628183 C72.5175864,133.628183 56,118.712958 56,100.314092 C56,81.9152259 72.5175864,67 92.8930643,67 C100.346581,67 107.283852,68.9958903 113.085173,72.4280852 C110.101673,71.6063214 106.934778,71.1642614 103.653541,71.1642614 C85.8249984,71.1642614 71.3721101,84.2150843 71.3721101,100.314092 C71.3721101,116.413099 85.8249984,129.463922 103.653541,129.463922 C106.934778,129.463922 110.101673,129.021861 113.085173,128.200097 L113.085173,128.200097 L113.085173,128.200097 L113.085173,128.200097 L113.085173,128.200097 L113.085173,128.200097 Z M123.637284,112.112833 L110.987586,118.54697 L113.403463,104.919248 L103.169641,95.2680415 L117.312437,93.2797817 L123.637284,80.8808715 L129.962136,93.2797847 L144.104931,95.2680515 L133.871106,104.919251 L136.286983,118.546972 L123.637284,112.112833 L123.637284,112.112833 L123.637284,112.112833 L123.637284,112.112833 L123.637284,112.112833 Z" id="shape" fill="#FFFFFF" mask="url(#mask-2)"></path>
            </g>
        </g>
    </g>
</svg>