<?xml version="1.0" encoding="UTF-8"?>
<svg width="200px" height="200px" viewBox="0 0 200 200" version="1.1" xmlns="http://www.w3.org/2000/svg" xmlns:xlink="http://www.w3.org/1999/xlink">
    <!-- Generator: Sketch 43.2 (39069) - http://www.bohemiancoding.com/sketch -->
    <title>macedonia</title>
    <desc>Created with Sketch.</desc>
    <defs>
        <circle id="path-1" cx="100" cy="100" r="100"></circle>
    </defs>
    <g id="Page-1" stroke="none" stroke-width="1" fill="none" fill-rule="evenodd">
        <g id="flags" transform="translate(-1250.000000, -3410.000000)">
            <g id="macedonia" transform="translate(1250.000000, 3410.000000)">
                <mask id="mask-2" fill="white">
                    <use xlink:href="#path-1"></use>
                </mask>
                <use id="border" fill="#FFFFFF" xlink:href="#path-1"></use>
                <circle id="yellow" fill="#F2C500" mask="url(#mask-2)" cx="100" cy="100" r="90"></circle>
                <path d="M102.797543,119.805894 L111.835148,189.228781 C141.076758,185.387703 165.89784,167.508833 179.309623,142.580943 L118.137487,108.439358 C119.332614,105.875212 120,103.015544 120,100 C120,96.9844558 119.332614,94.124788 118.137487,91.560642 L179.309623,57.4190568 C165.89784,32.4911672 141.076758,14.6122971 111.835148,10.7712186 L102.797543,80.194106 C101.883385,80.0661547 100.949418,80 100,80 C99.0505817,80 98.1166147,80.0661547 97.2024571,80.194106 L88.164852,10.7712186 C58.923242,14.6122971 34.10216,32.4911672 20.690377,57.4190568 L81.8625128,91.560642 C80.6673861,94.124788 80,96.9844558 80,100 C80,103.015544 80.667386,105.875212 81.8625128,108.439358 L20.690377,142.580943 C34.10216,167.508833 58.923242,185.387703 88.164852,189.228781 L97.2024571,119.805894 C98.1166147,119.933845 99.0505817,120 100,120 C100,120 88.9543045,120 100,120 C100.949418,120 101.883385,119.933845 102.797543,119.805894 L102.797543,119.805894 L102.797543,119.805894 Z M118.748229,93.0199552 L184.367032,68.5897984 C187.314211,76.5025977 189.18004,84.9418603 189.784854,93.72792 L119.95219,98.6062045 C119.817787,96.6537468 119.403158,94.7783551 118.748229,93.0199552 C118.748229,93.0199552 119.403158,94.7783551 118.748229,93.0199552 L118.748229,93.0199552 Z M118.748229,106.980045 L184.367032,131.410202 C187.314211,123.497402 189.18004,115.05814 189.784854,106.27208 L119.95219,101.393796 C119.817787,103.346253 119.403158,105.221645 118.748229,106.980045 C118.748229,106.980045 119.403158,105.221645 118.748229,106.980045 L118.748229,106.980045 Z M81.251771,93.0199552 L15.632968,68.5897984 C12.685789,76.5025977 10.81996,84.9418603 10.215146,93.72792 L80.04781,98.6062045 C80.182213,96.6537468 80.596842,94.7783551 81.251771,93.0199552 C81.251771,93.0199552 80.596842,94.7783551 81.251771,93.0199552 L81.251771,93.0199552 Z M81.251771,106.980045 L15.632968,131.410202 C12.685789,123.497402 10.81996,115.05814 10.215146,106.27208 L80.04781,101.393796 C80.182213,103.346253 80.596842,105.221645 81.251771,106.980045 C81.251771,106.980045 80.596842,105.221645 81.251771,106.980045 L81.251771,106.980045 Z M100,117 C109.388841,117 117,109.388841 117,100 C117,90.6111588 109.388841,83 100,83 C90.6111588,83 83,90.6111588 83,100 C83,109.388841 90.6111588,117 100,117 C100,117 90.6111588,117 100,117 L100,117 Z" id="red" fill="#FF0000" mask="url(#mask-2)"></path>
            </g>
        </g>
    </g>
</svg>