<?xml version="1.0" encoding="UTF-8"?>
<svg width="200px" height="200px" viewBox="0 0 200 200" version="1.1" xmlns="http://www.w3.org/2000/svg" xmlns:xlink="http://www.w3.org/1999/xlink">
    <!-- Generator: Sketch 43.2 (39069) - http://www.bohemiancoding.com/sketch -->
    <title>mauritania</title>
    <desc>Created with Sketch.</desc>
    <defs>
        <circle id="path-1" cx="100" cy="100" r="100"></circle>
    </defs>
    <g id="Page-1" stroke="none" stroke-width="1" fill="none" fill-rule="evenodd">
        <g id="flags" transform="translate(-710.000000, -3680.000000)">
            <g id="mauritania" transform="translate(710.000000, 3680.000000)">
                <mask id="mask-2" fill="white">
                    <use xlink:href="#path-1"></use>
                </mask>
                <use id="border" fill="#FFFFFF" xlink:href="#path-1"></use>
                <circle id="green" fill="#1AAF5D" mask="url(#mask-2)" cx="100" cy="100" r="90"></circle>
                <path d="M100.002762,72 L88.2478695,78.1803406 L90.4928536,65.0901703 L80.9829448,55.8196606 L94.1253171,53.9098287 L100.002762,42 L105.880211,53.9098316 L119.022582,55.8196701 L109.51267,65.0901728 L111.757654,78.1803408 L100.002762,72 L100.002762,72 Z M147.906559,51.6376369 C149.268397,56.1866369 150,61.0078809 150,66 C150,93.6142389 127.614239,116 100,116 C72.3857611,116 50,93.6142389 50,66 C50,61.0078809 50.7316032,56.1866369 52.0934408,51.6376369 C52.0314544,52.5842112 52,53.5386236 52,54.5 C52,79.6289574 73.4903307,100 100,100 C126.509669,100 148,79.6289574 148,54.5 C148,53.5386236 147.968546,52.5842112 147.906559,51.6376369 C147.906559,51.6376369 147.968546,52.5842112 147.906559,51.6376369 L147.906559,51.6376369 Z" id="star" fill="#F2C500" mask="url(#mask-2)"></path>
            </g>
        </g>
    </g>
</svg>