<?xml version="1.0" encoding="UTF-8"?>
<svg width="200px" height="200px" viewBox="0 0 200 200" version="1.1" xmlns="http://www.w3.org/2000/svg" xmlns:xlink="http://www.w3.org/1999/xlink">
    <!-- Generator: Sketch 43.2 (39069) - http://www.bohemiancoding.com/sketch -->
    <title>nauru</title>
    <desc>Created with Sketch.</desc>
    <defs>
        <circle id="path-1" cx="100" cy="100" r="100"></circle>
    </defs>
    <g id="Page-1" stroke="none" stroke-width="1" fill="none" fill-rule="evenodd">
        <g id="flags" transform="translate(-1520.000000, -3950.000000)">
            <g id="nauru" transform="translate(1520.000000, 3950.000000)">
                <mask id="mask-2" fill="white">
                    <use xlink:href="#path-1"></use>
                </mask>
                <use id="border" fill="#FFFFFF" xlink:href="#path-1"></use>
                <path d="M100,190 C149.70563,190 190,149.70563 190,100 C190,50.2943701 149.70563,10 100,10 C50.2943701,10 10,50.2943701 10,100 C10,149.70563 50.2943701,190 100,190 L100,190 Z" id="blue" fill="#007BCA" mask="url(#mask-2)"></path>
                <path d="M10.1365419,105 L189.863458,105 C189.95409,103.344848 190,101.677785 190,100 C190,98.3222146 189.95409,96.655152 189.863458,95 L10.1365419,95 C10.0459099,96.655152 10,98.3222146 10,100 C10,101.677785 10.0459099,103.344848 10.1365419,105 L10.1365419,105 Z" id="yellow" fill="#F2C500" mask="url(#mask-2)"></path>
                <polygon id="star" fill="#FFFFFF" mask="url(#mask-2)" points="55.4999995 143.649774 50.8219859 154.508321 50.9649778 142.685825 42.2748329 150.702883 47.2141036 139.960655 36.0144289 143.750001 44.895935 135.94547 33.1232574 134.851891 44.4113057 131.334532 34.1012282 125.547118 45.8440125 126.925113 38.7792413 117.444562 48.9463294 123.479642 46.3484353 111.945223 53.1818343 121.593875 55.5000003 110 57.8181711 121.593876 64.6515848 111.945232 62.0536751 123.479645 72.2207591 117.444562 65.155989 126.925116 76.8987753 125.547129 66.5886946 131.334534 77.8767425 134.851892 66.1040641 135.945473 74.9855654 143.750011 63.7858944 139.960658 68.7251667 150.702883 60.0350183 142.685827 60.1780005 154.508324"></polygon>
            </g>
        </g>
    </g>
</svg>