<?xml version="1.0" encoding="UTF-8"?>
<svg width="200px" height="200px" viewBox="0 0 200 200" version="1.1" xmlns="http://www.w3.org/2000/svg" xmlns:xlink="http://www.w3.org/1999/xlink">
    <!-- Generator: Sketch 43.2 (39069) - http://www.bohemiancoding.com/sketch -->
    <title>norfolk_island</title>
    <desc>Created with Sketch.</desc>
    <defs>
        <circle id="path-1" cx="100" cy="100" r="100"></circle>
    </defs>
    <g id="Page-1" stroke="none" stroke-width="1" fill="none" fill-rule="evenodd">
        <g id="flags" transform="translate(-1520.000000, -4220.000000)">
            <g id="norfolk_island" transform="translate(1520.000000, 4220.000000)">
                <mask id="mask-2" fill="white">
                    <use xlink:href="#path-1"></use>
                </mask>
                <use id="border" fill="#FFFFFF" xlink:href="#path-1"></use>
                <path d="M130,184.877528 C164.952776,172.521396 189.994476,139.185191 189.994476,100 C189.994476,60.8148092 164.952776,27.4786037 130,15.1224724 L130,184.877531 L130,184.877528 L130,184.877528 Z" id="green" fill="#1AAF5D" mask="url(#mask-2)"></path>
                <path d="M70.0000004,15.1205162 L70.0000004,184.879484 C79.3825595,188.19561 89.4791864,190 99.9972386,190 C110.517354,190 120.61588,188.194901 130,184.877528 L130,15.1224687 C120.61588,11.8050986 110.517354,10 99.9972386,10 C89.4791864,10 79.3825595,11.8043904 70,15.12052 L70.0000004,15.1205162 L70.0000004,15.1205162 Z" id="white" fill="#FFFFFF" mask="url(#mask-2)"></path>
                <path d="M10.0027619,99.2874328 L10.0027619,100.712567 C10.3042477,139.592015 35.2577277,172.60161 70.0027615,184.880456 L70.0027619,15.1195401 C35.2577277,27.3983904 10.3042477,60.4079855 10.0027619,99.2874328 L10.0027619,99.2874328 L10.0027619,99.2874328 Z" id="green" fill="#1AAF5D" mask="url(#mask-2)"></path>
                <path d="M100.518915,64 C100.373749,65.5712 100.228279,67.1431942 100.083124,68.7144303 C99.5510269,68.794606 99.0190739,68.8744278 98.4869766,68.9545926 C98.486973,68.9545926 99.5955428,69.5770758 99.7890951,70.202357 C99.8200722,70.3025016 99.8076886,70.385385 99.7628477,70.4477362 C99.7481174,70.4672287 99.7255561,70.4888855 99.7050925,70.5051647 C99.3839675,70.751952 98.4344564,70.6356853 98.4344564,70.6356853 C98.4344564,70.6356816 99.6923118,71.6970278 99.7890879,72.0818398 C99.7912542,72.0908477 99.7941425,72.0992418 99.794323,72.1079645 C99.7942002,72.1151708 99.7957671,72.1270634 99.794323,72.1340531 C99.7928788,72.1396022 99.7860552,72.1495091 99.7838168,72.15495 C99.7752241,72.1738322 99.7597356,72.1951154 99.7418137,72.2123784 C99.4460877,72.4855395 98.0511463,72.5621698 98.0511463,72.5621698 C98.0511463,72.5621698 99.5977777,73.6649775 99.6945538,74.2902407 C99.7822571,74.8569074 99.7087065,75.1888094 99.6945538,75.2456367 C99.5864736,75.1533175 97.0923746,73.0573872 95.4835906,73.668967 C95.4034619,73.7105946 95.3560432,73.75026 95.336576,73.7890445 C95.3280194,73.8083925 95.3262142,73.8325062 95.331341,73.8516936 C95.4440461,74.2003296 97.7190638,74.5574681 99.306005,75.9296461 C99.2666411,76.273029 94.7831052,74.8373807 94.6173889,75.7364729 C94.7576232,75.9899935 99.4424773,76.6652424 99.7890735,77.2766056 C98.0637104,77.340762 94.4993296,76.8968841 94.6173889,77.4645618 C94.2568205,78.1199535 97.983885,77.7497816 99.5475393,78.2842257 C100.005895,78.8021343 99.9616495,79.2372027 99.1642436,79.2918278 C97.6571278,78.5752943 94.2840969,78.0428539 94.2759736,78.9577054 C94.276053,78.9587885 94.2758075,78.9620018 94.2759736,78.9629224 C94.2763346,78.9640055 94.2808476,78.9672549 94.2812086,78.9681394 C94.2826528,78.9710277 94.2840969,78.9759559 94.2864798,78.9785914 C94.2918593,78.9837362 94.3038457,78.9894767 94.3127272,78.9942605 C94.693622,79.1842566 97.83465,79.09158 99.017229,79.8713474 C97.340588,80.2505814 91.6553092,79.1020122 91.6192054,79.6625232 C91.7811706,79.9243117 92.6807827,81.07326 94.228786,81.0251337 C95.7767171,80.97702 99.3580486,81.6509564 99.6001244,82.1319308 C99.6076701,82.14695 99.6075979,82.1623772 99.6053595,82.1736993 C99.500543,82.5091394 94.8891239,81.1504643 93.1157067,81.9857431 C91.2776638,82.8516378 98.3864962,82.3267251 99.5475934,83.3849086 C100.708582,84.443092 97.2268431,83.2857153 97.2268431,83.2857153 C97.2268467,83.2857153 92.3920067,82.6149614 91.6665014,82.9515929 C90.9408337,83.288387 90.1175955,84.0583901 90.1175955,84.0583901 C90.1175955,84.0583901 90.599978,85.0181367 91.0836963,84.825848 C91.1573877,84.7965173 91.207756,84.7905349 91.2359639,84.7997594 C91.236686,84.8001204 91.2405491,84.7993984 91.2412351,84.7997594 C91.2419572,84.8001204 91.2458564,84.8046153 91.2465062,84.8049764 C91.2475893,84.8056985 91.2508026,84.8093088 91.2517774,84.8101934 C91.2524995,84.8112765 91.256182,84.8144175 91.2570124,84.8154104 C91.2573735,84.8157714 91.2619586,84.8200497 91.2622836,84.8206274 C91.2644498,84.8254472 91.2667243,84.8356104 91.2675186,84.8415278 C91.2789274,84.9858184 90.9367359,85.4053785 90.9367359,85.4053785 C90.9367359,85.4053785 97.7119694,87.0374675 99.2115395,88.4803366 C100.711074,89.9234404 90.6007903,86.219699 90.6007903,86.219699 C90.6007903,86.2196954 86.5373109,87.7105681 90.8423065,87.8068027 C90.3624693,88.504833 91.0410577,88.9344679 91.0838226,88.9605889 C91.0838226,88.9605889 98.2446444,90.4531008 98.9701497,91.6075369 C99.6958174,92.7619549 94.084768,90.4994038 92.8270932,89.874249 C91.6136996,89.2709009 88.2361377,90.1933341 88.0438852,90.4746367 C88.042441,90.4768029 88.0395888,90.4829225 88.0386501,90.4850887 C88.0382891,90.4861718 88.0390112,90.4892767 88.0386501,90.4903057 C88.0382891,90.4924719 88.0384913,90.4988442 88.0386501,90.5007577 C88.0388162,90.5018409 88.0384804,90.5050541 88.0386501,90.5059747 C88.0390112,90.5070578 88.0382891,90.5102711 88.0386501,90.5111917 C88.0390112,90.5122748 88.0434519,90.515452 88.0438852,90.5164087 C88.0442462,90.5174918 88.0435241,90.520669 88.0438852,90.5216257 C88.0460514,90.5254888 88.0513587,90.5334136 88.0543914,90.5372948 C88.0551134,90.5383779 88.0587599,90.541555 88.0596264,90.5425118 C88.2759963,90.7795872 89.7836537,91.1060736 89.8290541,91.5135768 C89.8292202,91.515382 89.8289314,91.5171872 89.8290541,91.5187938 C89.8297762,91.5405572 89.8230248,91.5663064 89.8132768,91.5866653 C89.623371,91.9528117 87.8246811,92.1085633 87.7497658,92.4533182 C87.7486827,92.4592212 87.7445308,92.468193 87.7445308,92.4742187 C87.7445271,92.8591391 96.7930382,94.7350368 99.2116298,96.7552233 C101.630221,98.7754098 92.1024364,94.3483654 92.1024364,94.3483654 C92.1024364,94.3483654 92.6345518,95.0695382 92.1024364,95.2620074 C91.5703209,95.4542961 89.6800539,92.5686662 86.5841556,94.3483654 C86.0202869,95.080604 89.2872449,95.6617845 90.1178121,95.7422959 C89.8341989,96.4673679 89.5868881,96.7072233 90.7478771,97.4286128 C90.8748396,97.507532 90.9461229,97.5552106 90.973652,97.5800175 C90.9743741,97.5807396 90.978165,97.5844944 90.9789231,97.5852526 L90.9841582,97.5904876 C90.9845192,97.5908487 90.9839921,97.5952533 90.9841582,97.5957227 C90.9840535,97.5960837 90.9843243,97.600705 90.9841582,97.6009577 C90.9837971,97.6010299 90.9795369,97.6009361 90.9789231,97.6009577 C90.9782011,97.6009216 90.9744824,97.6010444 90.973652,97.6009577 C90.7938263,97.5729773 88.7081404,96.5071759 88.4900736,96.4628225 C88.4879074,96.4624614 88.4811921,96.4629524 88.4795674,96.4628225 C88.4788453,96.4628622 88.4748378,96.462725 88.4743324,96.4628225 C88.4743324,96.5590462 88.7158485,97.7158038 88.7158485,97.7158038 C87.644072,96.8500715 86.3485243,96.5890412 85.1350766,97.4756596 C85.1332714,97.5269486 85.1243899,98.3570429 86.3426936,98.8696081 C85.6560179,100.264766 87.1186719,99.8315931 89.4405776,101.130246 C85.9897792,100.233446 85.7134048,101.899292 88.1804657,102.284032 C90.6475266,102.668772 97.4212258,102.909855 99.017554,104.977915 C99.3542758,105.414193 99.4456544,105.633559 99.3798372,105.703601 C99.11359,105.943528 96.6641116,104.181917 96.308309,104.116497 C96.3075869,104.116858 96.303796,104.115775 96.3030378,104.116497 C96.3023158,104.117219 96.2985249,104.120901 96.2977667,104.121732 C96.2932537,104.127364 96.2865023,104.13852 96.2819893,104.147835 C96.1950587,104.339185 96.1139732,105.171106 96.1139732,105.171106 C95.0820192,104.577181 94.1351256,104.044416 92.9007377,103.792827 C92.8039615,103.985115 92.8242482,104.258349 92.7274721,104.450637 C91.6072984,103.647401 90.6314677,103.082665 89.0048123,103.004483 C88.9402949,103.26109 88.875059,103.52055 88.8105379,103.777158 C88.8105415,103.777154 87.4544442,102.093657 84.7938129,103.777158 C83.308215,104.836171 90.4059635,104.160616 91.5668803,105.41125 C92.7278692,106.661722 91.8084145,106.852188 91.8084145,106.852188 C90.8409778,106.499508 89.8775848,106.150276 88.9101843,105.797597 C88.9101843,105.797597 85.4723833,105.169048 84.5049828,105.938557 C83.5375461,106.708217 98.6293193,108.584602 99.0645502,110.652987 C99.3580739,111.774659 95.518799,109.478441 92.196891,108.491635 C92.0683977,108.858792 91.9368536,109.226058 91.8083603,109.593215 C91.7295783,109.515718 90.4445765,108.272918 89.0045415,108.058317 C89.0041805,108.059039 88.9996675,108.062325 88.9992704,108.063552 C88.9991007,108.065358 88.9993137,108.07164 88.9992704,108.074022 C89.0014366,108.231879 89.2932995,109.358324 89.2932995,109.358324 C89.2932959,109.358327 85.5722644,107.624819 83.6858424,108.53866 C81.7992399,109.452501 90.2626857,109.933349 91.03657,110.799298 C91.1212117,110.893987 91.1564418,110.963014 91.1520804,111.00814 C91.1506363,111.015938 91.145329,111.027816 91.1415742,111.034207 C90.9546289,111.306447 88.4307226,110.300975 88.180343,110.799279 C87.8900145,111.376488 83.7792934,109.742648 83.8276724,110.512128 C83.8760587,111.281788 84.4104775,111.712903 84.4104775,111.712903 C84.4104739,111.712903 92.9724867,112.530094 93.262761,113.540115 C93.552927,114.55019 88.5216139,112.965831 88.5216139,112.965831 C88.5216139,112.965831 88.034917,113.68379 88.4218555,114.020422 C88.436983,114.033564 88.4490417,114.046164 88.453338,114.051724 C88.4534644,114.052085 88.4533091,114.05667 88.453338,114.056959 C88.452977,114.056843 88.4487529,114.057125 88.4480669,114.056959 C88.2731838,113.999597 85.5471289,112.224151 85.8123111,113.587086 C84.7455711,113.164744 81.9914491,111.85656 82.3784815,112.866617 C82.7597373,113.861836 89.943124,115.278891 90.1545116,115.32041 C89.9645516,115.335285 86.926654,115.588011 87.0672782,116.380236 C82.9956755,113.913807 83.005243,115.39287 83.0978492,115.508366 C83.0980152,115.508525 83.0976795,115.513457 83.0978492,115.513601 C82.8691137,115.477642 77.8599141,114.236792 81.8429724,116.380254 C83.9790519,117.52969 84.4996683,117.977792 84.5103189,118.150097 C84.5103875,118.153888 84.5106799,118.162228 84.5103189,118.165766 C84.5095968,118.170352 84.5066724,118.17732 84.5050839,118.181435 C84.5047228,118.182519 84.5003543,118.185696 84.4998127,118.18667 C84.4980075,118.189559 84.4965634,118.194505 84.4945777,118.197104 C84.4938556,118.197827 84.4900647,118.201509 84.4893065,118.20234 C84.4885844,118.203062 84.4849019,118.206816 84.4840354,118.207575 C84.4833133,118.208297 84.4797029,118.212088 84.4788003,118.21281 C84.4777172,118.213532 84.4745401,118.217359 84.4735292,118.218045 C84.3907216,118.27072 84.19062,118.248661 84.1322402,118.249347 C84.129713,118.249437 84.1235392,118.249181 84.121734,118.249347 C84.1206509,118.249708 84.1166795,118.25404 84.116499,118.254582 L84.121734,118.259817 C84.1785614,118.343823 84.4910756,119.192124 84.4735111,119.340511 C84.4731501,119.343038 84.4688898,119.349031 84.46824,119.350945 C84.4678789,119.351667 84.468601,119.355422 84.46824,119.35618 C84.4680739,119.356541 84.4632576,119.355819 84.4629688,119.35618 C84.4626078,119.356346 84.4633299,119.361234 84.4629688,119.361415 C84.4626078,119.361509 84.4580948,119.36135 84.4576977,119.361415 C84.4573366,119.361372 84.4530042,119.361502 84.4524265,119.361415 C84.277872,119.31769 81.6397623,117.915856 80.7350018,117.8213 C79.8157818,117.725066 75.4611435,119.022364 80.1049368,121.042479 C84.7487302,123.062593 87.6011627,120.56062 90.1648914,120.849305 C92.7286202,121.137829 93.9402627,121.571652 93.6985479,122.389438 C93.4565985,123.207062 91.0759701,119.708733 88.5739788,122.734013 C85.7279186,122.174007 83.7970889,121.84994 85.2661513,123.929571 C80.6183325,122.202457 77.7800346,124.456487 83.63325,125.370508 C89.3849417,125.539073 92.921306,123.97656 92.921306,123.97656 C92.921306,123.976564 93.8915948,125.759725 95.2945873,124.509072 C96.6316002,123.317215 96.7367705,124.834097 96.7857272,124.978945 C96.7864493,124.981111 96.7902402,124.982953 96.7909983,124.98418 C96.7913594,124.984541 96.7906373,124.989198 96.7909983,124.989415 C96.7913594,124.989415 96.7956918,124.989487 96.7962334,124.989415 C96.8995299,124.963601 98.1456118,124.409913 98.1456118,124.409913 C98.2585191,124.409917 98.3739862,124.409913 98.4869007,124.409913 L98.4869007,135.953011 C100.05097,135.969041 101.611502,135.983952 103.175517,136 C103.175517,136 101.675929,125.949793 102.49821,124.603123 C103.294948,123.298495 104.048199,123.439318 104.094358,123.449337 C104.094358,123.449337 107.142419,124.361137 107.480892,124.216794 C107.484827,124.214989 107.492878,124.213545 107.496669,124.211559 C107.499196,124.210115 107.504792,124.207768 107.507175,124.206324 C107.51306,124.202606 107.522808,124.194988 107.528187,124.190655 C107.529271,124.189933 107.532375,124.186323 107.533459,124.18542 C107.781167,123.960566 107.528801,123.073262 109.077111,123.209138 C109.555179,123.036223 109.372765,122.278401 109.680911,122.091889 C109.686363,122.08864 109.696183,122.084235 109.701923,122.081455 C109.713549,122.076003 109.730987,122.069721 109.743926,122.065786 C109.761978,122.060623 109.786146,122.057446 109.806931,122.055352 C110.290649,122.00724 119.625712,124.650491 121.657272,122.149326 C121.125156,120.754511 119.284712,122.054226 118.800922,122.102337 C118.365583,122.102341 116.526023,121.236605 115.461684,122.102337 C114.494247,121.380948 110.095581,120.901562 110.095581,120.901562 C109.515086,120.324353 120.592571,121.188244 121.221319,120.755382 C122.527318,119.456621 118.80381,119.602047 118.223261,120.034913 C117.191307,119.409595 115.894568,119.455862 115.104437,119.888736 C114.725564,118.987586 111.12869,119.377886 109.129444,119.121278 C108.489468,118.748055 108.596029,118.533834 109.029685,118.301614 C113.205809,118.478032 117.360811,119.020242 121.557333,118.834127 C122.691605,117.363801 120.129411,116.809247 118.559276,118.061452 C117.637528,116.554192 115.75311,118.012459 114.495435,117.868279 C113.237833,117.723932 113.81811,116.186944 115.414276,116.427341 C117.010604,116.667918 119.864969,116.329229 120.396958,115.607677 C120.928892,114.886288 120.079317,114.155421 117.446196,114.840219 C116.555029,113.974162 114.595443,114.838775 113.676241,115.127371 C112.453424,114.449089 109.608429,115.032981 108.641028,115.273551 C107.693918,114.688165 113.62371,113.733436 113.62371,113.733436 C115.912508,113.693174 117.203579,113.299397 117.929084,113.106946 C121.38927,111.262946 117.880907,111.067083 116.065227,112.407363 C114.938176,111.532442 113.867771,112.483008 112.851992,112.819813 C111.899646,113.135414 110.138432,113.365286 109.922171,113.274016 C109.919643,113.272933 109.913722,113.270081 109.911664,113.268781 C109.911303,113.26842 109.906935,113.264015 109.906393,113.263546 L109.901158,113.258311 C109.900992,113.25795 109.901274,113.253617 109.901158,113.253076 C109.901158,113.252715 109.901075,113.248455 109.901158,113.247841 C109.90188,113.245675 109.904913,113.239898 109.906393,113.237407 C110.049054,113.017481 112.657681,111.42572 112.657681,111.42572 C112.657681,111.425716 116.044215,111.182597 116.721522,111.08638 C117.134224,111.027737 118.580685,110.346885 118.580144,110.094429 C118.568013,109.937728 117.965369,109.952119 116.138626,110.412901 C114.493919,110.55724 113.527963,110.463977 112.899035,110.512088 C111.887624,110.408117 111.461509,110.302109 111.376394,110.209286 C111.373145,110.205351 111.36791,110.197516 111.365888,110.193617 C111.358812,110.176865 111.363361,110.157492 111.376394,110.141407 C111.379644,110.137689 111.387839,110.129421 111.392172,110.125738 C111.640096,109.928846 113.240324,109.786381 113.240324,109.786381 C113.240324,109.786385 118.125705,109.340897 118.448834,109.086798 C118.449917,109.085715 118.453058,109.082574 118.454069,109.081563 C118.455874,109.079397 118.458185,109.073115 118.459304,109.071129 C118.459665,109.070046 118.464287,109.066869 118.464575,109.065894 C118.565099,107.079826 114.320043,107.996916 114.206497,108.011303 C114.218628,106.614755 110.375165,107.990796 110.195187,108.011303 C110.194826,108.011252 110.190169,108.011397 110.189916,108.011303 C110.024554,107.914429 109.95248,107.812209 109.937894,107.718935 C109.933164,107.683372 109.937728,107.643355 109.9484,107.609298 C110.044674,107.321335 110.625707,107.097672 110.625707,107.097672 C111.68992,106.841227 113.281139,106.761167 113.697235,106.424192 C113.697235,106.424192 116.700888,106.397909 117.057593,105.604528 C116.320517,103.582537 110.700983,105.962461 109.9484,106.324997 C109.797613,106.324997 109.705277,106.28733 109.659624,106.225802 C109.41253,105.866822 110.631953,104.684694 110.672967,104.643915 C110.673328,104.643554 110.677263,104.639077 110.678202,104.63868 C110.864046,104.586261 115.350752,104.357991 117.49333,101.469672 C117.644547,99.6837445 114.931045,102.477274 114.931045,102.477274 C114.728413,100.161036 111.980465,102.624169 110.384136,102.816631 C108.787971,103.00892 108.741234,102.094339 109.853826,101.949978 C110.966256,101.805801 112.222956,101.900191 112.851883,100.21669 C113.480612,98.5331896 115.36958,100.314719 115.708233,99.6893948 C116.036218,99.0836096 115.090191,98.5672354 115.030926,98.5356085 C115.03093,98.5356085 116.432764,97.0883347 114.159345,97.136443 C111.908817,97.1840747 108.999214,96.8559889 108.940365,96.8493097 C109.081505,96.7957425 111.373759,95.9360468 113.529334,95.9826568 C115.75459,96.0307686 114.544663,94.395535 112.416219,94.395535 C110.287902,94.395535 109.176628,93.6750662 109.176628,93.6750662 C110.386014,93.22617 111.5954,92.777003 112.804696,92.3281068 C112.724043,91.9914752 112.643814,91.6571362 112.563161,91.3205047 C112.563161,91.3205047 114.690757,89.6357944 111.69158,90.0205343 C108.69244,90.4054546 108.352343,90.4538517 108.352343,90.4538517 C108.352339,90.4538517 102.448474,91.3534313 102.308933,91.3674937 C102.308571,91.3674937 102.304239,91.3675551 102.303661,91.3674937 C102.246516,91.3585942 101.661754,91.1779309 101.552847,90.9550443 C101.549598,90.9477332 101.544616,90.9363425 101.542341,90.9289557 C101.539814,90.9200561 101.537937,90.9066508 101.53707,90.8976429 C101.536348,90.8871186 101.535265,90.8717709 101.53707,90.8610986 C101.56144,90.7436441 101.743547,90.61664 102.209142,90.5008733 C103.757073,90.1161154 109.225909,89.0114122 110.048173,89.300098 C110.154188,89.3372885 110.23158,89.3288871 110.279201,89.2896459 C110.587527,89.0122246 109.561747,87.2429232 107.044845,86.9925435 C104.142463,86.7040203 102.356228,87.7130123 102.356228,87.7130123 C102.356228,87.7130123 100.46764,87.03724 102.209214,86.460031 C103.950535,85.8829844 106.708827,86.6532042 106.708827,86.6532042 C106.708823,86.6532042 109.80292,85.7379736 107.239119,85.3532338 C104.67539,84.9683135 103.867027,85.6993065 102.69221,85.7395802 C102.223276,85.1575333 106.717239,85.0201224 106.997585,84.5388049 C106.523614,83.6727477 103.743191,84.5388049 102.11455,84.5388049 C101.421827,84.2466171 101.375993,83.7711846 102.161806,83.4789968 C103.822652,83.414844 105.383887,83.5118224 107.044841,83.447684 C106.996455,82.5659216 107.045924,81.5206453 106.997588,80.6389912 C104.890933,80.2562371 102.420533,80.9192828 101.237773,80.8634844 C101.554151,79.9013551 106.102576,79.6530153 106.609112,79.3912268 C107.654172,78.0923396 102.246513,79.3711568 102.114734,79.3912268 C101.154861,79.2502218 101.212988,78.6469476 101.820705,78.2844297 C103.223463,78.1240495 106.369238,78.4888312 106.131315,77.5430748 C105.949027,76.6568536 103.950286,77.1313474 103.128022,77.3237986 C102.305759,77.5160873 101.096102,77.370784 101.096102,77.370784 C100.569529,76.6658579 105.838332,76.9539841 105.790134,76.410171 C105.721421,75.7858105 102.450355,76.2158786 101.337636,76.2639869 C100.481905,75.6769034 105.36068,75.2865675 105.59048,75.2093957 C105.591563,75.2086737 105.595101,75.2047131 105.595751,75.2041715 C105.778057,73.6052258 102.209218,75.2041715 101.531911,75.2041715 C101.415505,75.2041715 101.327401,75.1752741 101.264129,75.1258588 C101.250013,75.1144356 101.233982,75.097391 101.222122,75.084094 C100.989614,74.8143808 101.195875,74.196555 101.195875,74.196555 C101.195875,74.196555 102.467684,73.6282997 102.545253,73.4917552 C102.545614,73.4906721 102.550127,73.4875744 102.550525,73.486531 C102.55068,73.48617 102.550413,73.4818087 102.550525,73.4813068 C102.55051,73.4809458 102.550582,73.4765158 102.550525,73.4760826 C102.550163,73.4753605 102.545795,73.4716491 102.545253,73.4708584 C102.542365,73.466822 102.535289,73.4599045 102.529476,73.4551857 C102.380183,73.3408722 101.505393,73.0523218 101.390131,73.0427363 C101.389409,73.0426965 101.385618,73.0427363 101.38486,73.0427363 C101.384138,73.0424655 101.380311,73.0379092 101.379625,73.037512 C101.378181,73.0364289 101.375618,73.0338367 101.374354,73.0322878 C101.373632,73.0315658 101.369697,73.0280709 101.369083,73.0270636 C101.303193,72.8926023 101.38486,71.9359174 101.38486,71.9359174 C101.38486,71.9359174 102.392607,71.1850131 102.455969,70.8865433 C102.45633,70.884016 102.455608,70.8785066 102.455969,70.8760948 C102.45633,70.8735676 102.455846,70.8679498 102.455969,70.8656464 C102.456023,70.8634802 102.456059,70.8574328 102.455969,70.855198 C102.45581,70.8530318 102.45633,70.8468761 102.455969,70.8447496 C102.455803,70.8436664 102.456135,70.8405326 102.455969,70.8395253 C102.455247,70.836637 102.451853,70.8318858 102.450698,70.8290769 C102.450337,70.8279938 102.451059,70.8247878 102.450698,70.8238527 C102.450337,70.8231306 102.445932,70.8195275 102.445426,70.8186285 C102.444343,70.8168233 102.441347,70.8150181 102.440155,70.8134043 C102.43835,70.810877 102.436906,70.8051906 102.43492,70.8029558 C102.434198,70.8022338 102.430479,70.7984501 102.429649,70.7977316 C102.425605,70.7944823 102.418746,70.7902365 102.413872,70.7872832 C102.411706,70.7862001 102.405496,70.7831385 102.403366,70.782059 C102.148852,70.6605463 101.095994,71.0222212 101.095994,71.0222212 C101.09599,70.7015656 101.095994,70.3822639 101.095994,70.0615902 C101.09599,70.0615902 102.017813,69.9619528 102.11459,69.5290776 C102.120258,69.5037111 102.117478,69.478776 102.11459,69.4559855 C102.113145,69.4469415 102.112062,69.4333196 102.109318,69.4246727 C102.103325,69.4060793 102.094263,69.3840686 102.083035,69.3672443 C102.08123,69.364717 102.074442,69.3593159 102.072529,69.3567958 C101.86161,69.0860717 101.00142,69.0487765 101.00142,69.0487765 C100.84013,67.3653299 100.679681,65.6837246 100.51837,64.0003863 L100.518915,64 Z M99.6578399,80.4871478 L99.6578399,81.1501935 C99.6578435,81.1501935 98.573048,81.0949439 98.3714626,80.9257003 C98.3703794,80.9249782 98.3670579,80.9212956 98.3661914,80.9204833 C98.3654693,80.9197612 98.3617506,80.9161147 98.3609203,80.9152663 C98.3601982,80.9145442 98.3564073,80.9108977 98.3556491,80.9100493 C98.354927,80.9093272 98.3510639,80.9056807 98.350378,80.9048323 C98.3485728,80.902305 98.3464787,80.8970519 98.3451068,80.8943803 C98.3447458,80.8936582 98.3454678,80.8900478 98.3451068,80.8891633 C98.3447458,80.8884412 98.3401245,80.8848308 98.3398718,80.8839463 C98.3397057,80.8832242 98.3400306,80.8796138 98.3398718,80.8787293 C98.3397057,80.8769241 98.3398898,80.8701546 98.3398718,80.8682772 C98.3399115,80.8671941 98.3397815,80.8639809 98.3398718,80.8630602 C98.3400162,80.8619771 98.3397057,80.8588 98.3398718,80.8578432 C98.3409549,80.8539801 98.3431211,80.8461276 98.3451068,80.8421742 C98.3454678,80.8410911 98.3498003,80.8379501 98.350378,80.8369572 C98.3529052,80.8329136 98.3574543,80.8253859 98.3608841,80.8212882 C98.3619673,80.8202051 98.3651444,80.8171001 98.3661553,80.8160712 C98.3683215,80.8139049 98.3743509,80.8077493 98.3766615,80.8056191 C98.3839184,80.7992468 98.3934136,80.7913581 98.4029089,80.7847187 C98.766853,80.5313604 99.4935136,80.5373356 99.6367733,80.4975854 C99.6378565,80.4972243 99.6409253,80.4979464 99.6420445,80.4975854 C99.6431276,80.4972243 99.6463769,80.4927655 99.6472795,80.4923684 C99.6480016,80.4920073 99.6518647,80.4927294 99.6525507,80.4923684 C99.6532728,80.4920073 99.6572803,80.4875846 99.6578218,80.4871514 L99.6578399,80.4871478 Z M101.19624,81.3694517 C101.233723,81.3694517 103.35705,81.3876119 103.543165,81.66182 C103.544609,81.6639863 103.547245,81.6698892 103.548436,81.6722721 C103.54988,81.6758825 103.552805,81.6842766 103.553707,81.6879411 C103.554069,81.6904684 103.553578,81.6958659 103.553707,81.6983932 C103.553682,81.7021841 103.55443,81.7102171 103.553707,81.7140622 C103.552624,81.7179614 103.550097,81.7257418 103.548436,81.7297312 C103.386302,82.0722116 101.238156,82.2779128 101.238156,82.2779128 L101.196153,81.3695059 L101.19624,81.3694517 Z M101.075476,82.6798561 C101.076198,82.6802171 101.079953,82.6794951 101.080711,82.6798561 C101.081433,82.6802171 101.084899,82.6794951 101.085982,82.6798561 C101.212042,82.7129705 102.09149,82.7413192 102.199098,82.8886803 C102.200181,82.8901245 102.203538,82.8925073 102.204369,82.8938973 C102.20473,82.8946194 102.204008,82.8984103 102.204369,82.8991143 C102.205091,82.9005585 102.209134,82.9028691 102.20964,82.9043313 C102.209806,82.9050534 102.209485,82.9088443 102.20964,82.9095483 C102.209719,82.9102704 102.209593,82.9140252 102.20964,82.9147653 C102.209644,82.9154874 102.209669,82.9192241 102.20964,82.9199823 C102.209568,82.9207044 102.209745,82.924423 102.20964,82.9251993 C102.209496,82.9259214 102.209806,82.92964 102.20964,82.9304163 C102.209279,82.9311384 102.204658,82.9348209 102.204369,82.9356333 C102.204008,82.9363553 102.20473,82.9400379 102.204369,82.9408503 C102.202925,82.9433775 102.200758,82.948775 102.199098,82.9513023 C102.198376,82.9520244 102.194476,82.9556709 102.193826,82.9565193 C102.193104,82.9572414 102.194549,82.9608879 102.193826,82.9617363 C102.01152,83.183269 101.199962,83.2436706 101.159472,83.2436706 C101.15911,83.2435984 101.154525,83.2438042 101.1542,83.2436706 C101.153839,83.2435046 101.154561,83.2387064 101.1542,83.2384536 C101.153478,83.2373705 101.149615,83.2343739 101.148965,83.2332366 C101.111865,83.1583394 101.075454,82.6798381 101.075454,82.6798381 L101.075476,82.6798561 Z M94.6015285,84.423596 C95.2948112,84.3877811 96.6706356,84.5501271 99.2534993,85.2589289 C99.2534993,85.3135864 99.3057992,85.9795241 99.2849818,86.0890268 C99.2848157,86.0897489 99.2799634,86.0934676 99.2797107,86.0942438 C99.2795446,86.0949659 99.2798804,86.0989554 99.2797107,86.0994608 C99.2793496,86.0998219 99.2750533,86.1046056 99.2744395,86.1046778 C99.2339491,86.0844633 94.5753533,84.7533317 94.1498703,84.7733874 C94.1382449,84.7737484 94.1241645,84.7744705 94.1131167,84.7733874 C94.1037297,84.7723043 94.0904435,84.7701381 94.0816342,84.7681704 C94.0700449,84.7652821 94.0550618,84.7571407 94.0448842,84.7525014 C94.0411294,84.7506962 94.032645,84.749252 94.0291068,84.7472844 C94.0280237,84.7465623 94.024991,84.7427714 94.0238357,84.7420674 C94.009683,84.7325179 93.9956387,84.7180331 93.9870857,84.7055231 C93.9863636,84.70444 93.9824283,84.701299 93.9818145,84.7003061 C93.9807314,84.6981399 93.9775182,84.691912 93.9765795,84.6898541 C93.9762184,84.688771 93.9769405,84.6857022 93.9765795,84.6846371 C93.9758574,84.6824709 93.9718138,84.6763513 93.9713083,84.6741851 C93.9711422,84.6731019 93.9714744,84.6700692 93.9713083,84.6689681 C93.9711422,84.6668018 93.9713625,84.6607906 93.9713083,84.658516 C93.9713516,84.6563498 93.9711422,84.6503746 93.9713083,84.648064 C93.9720304,84.6422693 93.9745577,84.633117 93.9765795,84.6271635 C93.98232,84.6129025 93.9940898,84.5945185 94.008062,84.5801781 C94.0792983,84.5108985 94.2577015,84.4413013 94.6013733,84.4235527 L94.6015285,84.423596 Z M97.0166902,86.3917931 C97.7592726,86.3653073 99.5383581,86.7909202 99.6367408,86.7676875 C99.6367372,86.9087503 99.7154651,87.5755093 99.6262347,87.7126495 C99.6255126,87.7137326 99.6218661,87.7168014 99.6209635,87.7178665 C99.6202414,87.7189496 99.616631,87.7221989 99.6156923,87.7230835 C99.6146092,87.7238056 99.611396,87.7276145 99.6104212,87.7283005 C99.608616,87.7293836 99.602009,87.7327051 99.599915,87.7335175 C99.5988319,87.7338785 99.5957992,87.7333514 99.5946439,87.7335175 C99.5924776,87.7336835 99.5865205,87.7336835 99.5841377,87.7335175 C99.5830545,87.7333514 99.5801662,87.7338785 99.5788665,87.7335175 C99.4276495,87.6959298 96.8021255,86.8667382 96.7015765,86.5275252 C96.7001324,86.5219471 96.7014574,86.5119645 96.7015765,86.5066247 C96.7026596,86.4948007 96.7084362,86.4803556 96.7173539,86.4700805 C96.718437,86.4689974 96.7213975,86.4659285 96.722625,86.4648635 C96.7237081,86.4637804 96.7265964,86.4607115 96.7278962,86.4596465 C96.7783006,86.4199215 96.8823048,86.3965678 97.0166722,86.3917768 L97.0166902,86.3917931 Z M104.325357,88.2190049 C105.034489,88.2052132 105.53514,88.2655841 105.349206,88.4800351 C104.842814,89.0640858 101.343131,89.5450783 101.343131,89.5450783 L101.280127,88.4800351 C101.355288,88.4690415 103.133514,88.2421654 104.32548,88.2190049 L104.325357,88.2190049 Z M94.3074633,91.5394686 C94.9025798,91.5079753 96.2884772,91.8329381 99.3742664,93.1318074 L99.3952788,93.8992652 C99.3952824,93.8992652 94.1696191,92.3233356 93.9872951,92.0615833 C93.89757,91.9327308 93.7307778,91.5700485 94.3075716,91.5395047 L94.3074633,91.5394686 Z M104.545951,92.6828209 C104.704938,92.6747878 104.816838,92.6907818 104.855721,92.7298063 C104.856804,92.7308894 104.860126,92.7339222 104.860956,92.7350233 C104.863123,92.7386337 104.864964,92.7468834 104.866228,92.7506924 C104.86695,92.7546277 104.871571,92.7620831 104.871499,92.7663614 C104.869332,92.7883775 104.852725,92.8180313 104.824242,92.8498947 C104.337997,93.3938521 101.726358,93.9358058 101.726358,93.9358058 C101.726358,93.9358058 101.726355,93.2512242 101.726358,93.2310061 C101.72672,93.2310422 101.731052,93.2309989 101.73163,93.2310061 C101.850678,93.2269625 103.767702,92.7221595 104.545919,92.6828245 L104.545951,92.6828209 Z M93.0893221,92.7767936 C93.8694704,92.7356624 95.6310275,93.14711 99.5789748,95.0060209 C99.5789712,95.0253003 99.6141399,95.666413 99.5999511,95.7264897 C99.5995901,95.7264139 99.5952215,95.7266377 99.59468,95.7264897 C99.3606192,95.6514733 92.4907216,93.2519372 92.4907216,93.2519372 C92.4833925,93.225632 92.3800491,92.8142512 93.089286,92.7768477 L93.0893221,92.7767936 Z M106.168274,95.7788221 C106.36791,95.7704821 106.498894,95.7876675 106.530557,95.8310281 C106.533446,95.8360466 106.535431,95.8461195 106.535828,95.8519322 C106.535106,95.8728002 106.517668,95.8993978 106.483319,95.9302413 C105.860348,96.4896692 101.888573,97.1674272 101.747407,97.1780057 C101.746685,97.1780057 101.74275,97.1780851 101.742136,97.1780057 C101.741775,97.1778396 101.737442,97.1783667 101.736901,97.1780057 C101.73654,97.1776446 101.732135,97.1732761 101.73163,97.1727706 C101.730185,97.1709654 101.727478,97.1648639 101.726358,97.1623366 C101.725997,97.1612535 101.72672,97.1580764 101.726358,97.1571016 C101.725636,97.1549353 101.721629,97.1490143 101.721087,97.1466676 C101.695851,97.0170009 101.778066,96.5629057 101.784092,96.4992909 C101.78415,96.4982078 101.784092,96.4947057 101.784092,96.4940558 C101.784258,96.4942219 101.788966,96.4938898 101.789363,96.4940558 C101.790085,96.4941786 101.793732,96.4992187 101.794598,96.4992909 C101.795681,96.4993414 101.798678,96.4992764 101.799869,96.4992909 C102.054094,96.4950667 105.097949,95.82332 106.168245,95.7788221 L106.168274,95.7788221 Z M94.4912315,97.527779 C95.673648,97.4670416 99.2563876,99.1005856 99.4320325,99.1514377 C99.4323935,99.151528 99.4369426,99.1514269 99.4373036,99.1514377 C99.4188907,99.2244143 99.415858,99.8141947 99.4005536,99.9084435 C99.4001926,99.9109708 99.4009146,99.9175056 99.4005536,99.9188775 C99.4004092,99.9192386 99.3954269,99.9187151 99.3952824,99.9188775 C99.2986976,99.8674405 94.3884116,97.8411056 94.1710669,98.0028504 C94.0356127,97.6836751 94.1760492,97.5439535 94.4913434,97.5277609 L94.4912315,97.527779 Z M105.055195,97.9558794 C105.301224,97.9451205 105.481309,97.955995 105.538245,97.9871814 C105.545141,97.9915139 105.551459,97.9975793 105.554022,98.0028504 C105.554383,98.0035725 105.553856,98.0071468 105.554022,98.0080855 C105.554066,98.0091686 105.554109,98.0123457 105.554022,98.0133205 C105.553661,98.0154868 105.555106,98.0216605 105.554022,98.0237545 C105.5533,98.0248376 105.549546,98.0278704 105.548751,98.0289896 C105.545141,98.0335748 105.538714,98.0396041 105.532974,98.0446586 C105.16838,98.3669209 101.784139,99.0313747 101.784139,99.0313747 C101.784139,99.0313747 101.768362,98.4079347 101.768362,98.3474609 C101.864484,98.3270262 104.049217,98.0000343 105.055249,97.9558975 L105.055195,97.9558794 Z M104.78216,100.111997 C105.020282,100.104126 105.189104,100.117629 105.228457,100.158982 L105.233692,100.164217 C105.234775,100.166022 105.233331,100.172738 105.233692,100.174651 C105.233854,100.175734 105.238891,100.178875 105.238963,100.179886 C105.238912,100.180969 105.233872,100.184074 105.233692,100.185121 C105.233331,100.187287 105.234775,100.193281 105.233692,100.195555 C105.23297,100.196638 105.229143,100.199599 105.228457,100.20079 C105.225568,100.20552 105.222175,100.211549 105.21795,100.216459 C105.214701,100.220178 105.206397,100.228337 105.202173,100.232128 C104.836893,100.545617 101.967817,101.145752 101.967817,101.145752 C101.967817,101.145752 101.88906,100.461171 101.88906,100.440952 C101.968647,100.442758 103.886862,100.141598 104.782055,100.112047 L104.78216,100.111997 Z M92.67458,100.28428 C93.3668157,100.240761 95.08216,100.524388 99.3164101,102.054123 L99.4581752,102.879004 C99.4581752,102.879008 92.4080115,100.61602 92.2072745,100.545256 C92.2076355,100.545256 92.2071229,100.540599 92.2072745,100.540021 C92.2074406,100.535653 92.2061914,100.525074 92.2072745,100.513882 C92.2098018,100.493159 92.2203441,100.460539 92.2440245,100.430345 C92.2937105,100.369785 92.4072208,100.300978 92.674562,100.284168 L92.67458,100.28428 Z M101.962636,102.075009 C102.047595,102.093061 103.229752,102.132078 103.448523,102.315171 C103.449606,102.315893 103.452819,102.31954 103.453794,102.320406 C103.454516,102.321129 103.458162,102.324739 103.459065,102.325642 C103.459787,102.326364 103.463578,102.329974 103.464336,102.330877 C103.466502,102.333765 103.467947,102.338567 103.469607,102.341311 C103.469968,102.342394 103.474373,102.345607 103.474842,102.346546 C103.476648,102.350336 103.479139,102.358315 103.480114,102.362215 C103.48028,102.363298 103.479966,102.366439 103.480114,102.36745 C103.480211,102.368533 103.48007,102.371674 103.480114,102.372685 C103.480106,102.374851 103.48028,102.381097 103.480114,102.383119 C103.479951,102.384202 103.48028,102.387307 103.480114,102.388354 C103.479753,102.39052 103.475601,102.396658 103.474842,102.398788 C103.474481,102.399871 103.475203,102.40294 103.474842,102.404023 C103.473759,102.406189 103.470907,102.412291 103.469607,102.414457 C103.287301,102.696463 102.051975,102.800803 102.051975,102.800803 C102.051975,102.800803 101.991281,102.248199 101.962715,102.075117 L101.962636,102.075009 Z M104.824221,103.682999 C105.099494,103.676428 105.297072,103.707766 105.338772,103.787411 C105.362239,103.841393 105.317073,103.921136 105.186511,104.027573 C104.17371,104.853375 101.96786,105.014289 101.96786,105.014289 L101.96786,104.105882 C101.968221,104.105926 101.972084,104.105951 101.973131,104.105882 C102.098433,104.09108 103.910279,103.704787 104.824246,103.682999 L104.824221,103.682999 Z M107.633275,104.528766 C107.982904,104.515588 108.133547,104.57387 108.179326,104.654064 C108.183009,104.661176 108.187702,104.672693 108.189832,104.680203 C108.193082,104.693778 108.196223,104.712696 108.195104,104.727196 C108.183839,104.830666 108.071148,104.954649 107.985088,105.035215 C107.640658,105.357477 102.151802,107.086992 102.151802,107.086992 C102.151802,107.086992 102.110474,105.939795 102.130789,105.839228 C105.339873,104.872188 106.909484,104.556082 107.633365,104.528824 L107.633275,104.528766 Z M104.083913,107.776119 C104.432874,107.763194 104.705746,107.783701 104.787485,107.864866 C104.792504,107.870246 104.799905,107.879813 104.803263,107.88577 C104.805068,107.889417 104.807306,107.897576 104.808498,107.901439 C104.809581,107.905338 104.808137,107.912992 104.808498,107.917108 C104.808667,107.924076 104.810303,107.935629 104.808498,107.943247 C104.804526,107.958628 104.793948,107.977546 104.782214,107.995457 C104.312612,108.453722 102.030926,108.522753 102.030926,108.522753 L102.030926,107.953685 C102.459388,107.939316 103.413141,107.801045 104.083787,107.776181 L104.083913,107.776119 Z M106.367838,108.710629 C106.476315,108.708102 106.542468,108.725612 106.551606,108.757618 C106.551967,108.760146 106.551967,108.765381 106.551606,108.768052 C106.546118,108.794697 106.514249,108.835068 106.446594,108.882906 C105.5351,109.527268 102.109629,110.188093 102.109629,110.188093 C102.109629,110.188093 102.152072,109.737771 102.172634,109.629478 C102.267911,109.628033 105.548156,108.730584 106.367711,108.710619 L106.367838,108.710629 Z M108.289461,109.425881 C108.693101,109.42209 109.001174,109.481315 109.176801,109.608602 C109.177162,109.608602 109.181747,109.608516 109.182072,109.608602 C109.182202,109.608963 109.181975,109.61326 109.182072,109.613837 C109.182134,109.61456 109.182043,109.61835 109.182072,109.619072 C109.181989,109.620878 109.182238,109.627449 109.182072,109.629506 C109.164887,109.75435 108.908279,110.341653 108.005956,110.595355 C106.880547,110.495401 102.104253,111.899441 102.009842,111.921428 C102.009481,111.921067 102.004823,111.921789 102.004607,111.921428 C102.004246,111.919623 102.004773,111.913593 102.004607,111.910994 C102.002079,111.821056 102.067615,111.336709 102.067611,111.336709 C103.714034,110.357683 106.706043,109.44072 108.289374,109.425917 L108.289461,109.425881 Z M96.0611137,112.182404 C96.071656,112.182238 96.081404,112.182368 96.0925962,112.182404 C98.1586344,112.403937 98.9303525,113.172965 99.1484193,113.482374 C98.7364572,114.201201 95.4712503,112.589095 95.8144166,112.245062 C95.8536939,112.210186 95.9345339,112.185032 96.0611859,112.182411 L96.0611137,112.182404 Z M107.900984,112.318147 C107.983041,112.314898 108.057981,112.331722 108.111,112.365132 C108.132662,112.379538 108.154035,112.400225 108.168759,112.422559 C108.188652,112.454619 108.201902,112.498012 108.205512,112.547857 C107.989684,112.87947 106.873446,112.734712 106.803621,112.725361 C106.859852,112.705432 107.504359,112.333166 107.900977,112.318147 L107.900984,112.318147 Z M103.474842,114.552609 C103.628034,114.546327 103.755315,114.561708 103.82662,114.604812 C103.835248,114.610372 103.846043,114.619145 103.852867,114.625716 C103.855033,114.627882 103.861424,114.633767 103.863373,114.63615 C103.866261,114.63976 103.871569,114.64792 103.873879,114.651819 C103.876046,114.65579 103.87749,114.663228 103.87915,114.667488 C103.892148,114.706505 103.887093,114.760379 103.852903,114.82411 C103.528799,115.428379 102.109741,115.205221 102.109741,115.205221 L102.109741,114.782338 C102.110102,114.782457 102.114651,114.78224 102.114976,114.782338 C102.194906,114.789089 102.976989,114.572972 103.47486,114.552627 L103.474842,114.552609 Z M95.1160975,116.144948 C95.5526823,116.123033 95.9342811,116.40782 96.3342207,116.635689 C97.2253881,116.45443 99.0539177,116.776652 99.0539177,116.776652 L99.0539177,117.580647 C99.0539177,117.581369 99.0498019,117.585304 99.0486465,117.585882 C99.0479245,117.586243 99.0444946,117.585521 99.0434115,117.585882 C98.8769659,117.614693 96.7340338,117.521599 96.2554783,117.22044 C95.8651244,117.22044 94.7600602,116.640523 94.6750719,116.343353 C94.6743498,116.340826 94.6703423,116.335374 94.6698007,116.332919 C94.6690787,116.329236 94.6701618,116.32086 94.6698007,116.31725 C94.6696816,116.314722 94.6697538,116.309126 94.6698007,116.30678 C94.6699235,116.304613 94.6694397,116.298548 94.6698007,116.296346 C94.6699668,116.295263 94.6696311,116.29223 94.6698007,116.291111 C94.6701618,116.288944 94.6743498,116.282771 94.6750719,116.280677 C94.6754329,116.279594 94.6747109,116.276489 94.6750719,116.275442 C94.8277872,116.194522 94.9765925,116.151923 95.1161156,116.144923 L95.1160975,116.144948 Z M104.488275,116.541729 C104.823481,116.523785 104.965603,116.626811 104.703544,116.995932 C103.974356,118.023048 102.088728,117.601537 102.088728,117.601537 L102.009972,116.964594 C102.675057,116.990408 103.890617,116.573735 104.488134,116.54171 L104.488275,116.541729 Z M97.4420829,118.624736 C98.2045223,118.58939 99.0329775,118.891001 99.0329775,118.891001 C99.0525096,118.92969 99.4427553,119.694617 99.0959858,119.950809 C99.0830967,119.960052 99.0689441,119.969114 99.0539827,119.976912 C98.6285539,120.198445 96.5953159,119.803791 96.4759929,118.990196 C96.7152526,118.739076 97.0697195,118.641993 97.4420757,118.624736 L97.4420829,118.624736 Z M89.5821116,119.021516 C90.2794017,118.97991 91.0582864,119.407032 91.1467587,119.449616 C91.1478418,119.449978 91.1513439,119.44945 91.1519938,119.449616 C91.1519938,119.473698 91.1257463,120.222291 91.1257463,120.222291 C91.1257463,120.222291 89.7454089,119.839682 89.3090046,119.068505 C89.3964985,119.044785 89.4899387,119.027011 89.5820394,119.021516 L89.5821116,119.021516 Z M102.860717,119.125932 C103.638411,119.121022 104.577975,119.302689 104.714104,119.564484 C104.739846,119.618026 104.732192,119.677052 104.682622,119.736771 C104.297701,120.199874 102.109867,119.778536 102.109867,119.778536 L102.109867,119.214704 C102.304521,119.158086 102.572645,119.127766 102.860681,119.125946 L102.860717,119.125932 Z" id="tree" fill="#1AAF5D" mask="url(#mask-2)"></path>
            </g>
        </g>
    </g>
</svg>