<?xml version="1.0" encoding="UTF-8"?>
<svg width="200px" height="200px" viewBox="0 0 200 200" version="1.1" xmlns="http://www.w3.org/2000/svg" xmlns:xlink="http://www.w3.org/1999/xlink">
    <!-- Generator: Sketch 43.2 (39069) - http://www.bohemiancoding.com/sketch -->
    <title>romania</title>
    <desc>Created with Sketch.</desc>
    <defs>
        <circle id="path-1" cx="100" cy="100" r="100"></circle>
    </defs>
    <g id="Page-1" stroke="none" stroke-width="1" fill="none" fill-rule="evenodd">
        <g id="flags" transform="translate(-1250.000000, -4760.000000)">
            <g id="romania" transform="translate(1250.000000, 4760.000000)">
                <mask id="mask-2" fill="white">
                    <use xlink:href="#path-1"></use>
                </mask>
                <use id="border" fill="#FFFFFF" xlink:href="#path-1"></use>
                <path d="M130.000001,184.878829 C164.955772,172.523738 190,139.186567 190,100 C190,60.8134331 164.955772,27.4762623 130,15.1211708 L130,184.878833 L130,184.878833 L130.000001,184.878829 L130.000001,184.878829 L130.000001,184.878829 Z" id="red" fill="#FF0000" mask="url(#mask-2)"></path>
                <path d="M130.000001,184.878829 C120.616633,188.195374 110.519063,190 100,190 C89.480937,190 79.3833674,188.195374 69.9999996,184.878829 L70,15.121167 C79.3833673,11.8046265 89.480937,10 100,10 C110.519063,10 120.616633,11.8046265 130,15.1211708 L130,184.878833 L130,184.878833 L130.000001,184.878829 L130.000001,184.878829 L130.000001,184.878829 Z" id="yellow" fill="#F2C500" mask="url(#mask-2)"></path>
                <path d="M69.9999996,15.1211708 C35.0442275,27.4762623 10,60.8134331 10,100 C10,139.186567 35.0442275,172.523738 69.9999996,184.878829 L70,15.121167 L70,15.121167 L69.9999996,15.1211708 L69.9999996,15.1211708 L69.9999996,15.1211708 Z" id="blue" fill="#007BCA" mask="url(#mask-2)"></path>
            </g>
        </g>
    </g>
</svg>