<?xml version="1.0" encoding="UTF-8"?>
<svg width="200px" height="200px" viewBox="0 0 200 200" version="1.1" xmlns="http://www.w3.org/2000/svg" xmlns:xlink="http://www.w3.org/1999/xlink">
    <!-- Generator: Sketch 43.2 (39069) - http://www.bohemiancoding.com/sketch -->
    <title>saint_lucia</title>
    <desc>Created with Sketch.</desc>
    <defs>
        <circle id="path-1" cx="100" cy="100" r="100"></circle>
    </defs>
    <g id="Page-1" stroke="none" stroke-width="1" fill="none" fill-rule="evenodd">
        <g id="flags" transform="translate(-2600.000000, -4760.000000)">
            <g id="saint_lucia" transform="translate(2600.000000, 4760.000000)">
                <mask id="mask-2" fill="white">
                    <use xlink:href="#path-1"></use>
                </mask>
                <use id="border" fill="#FFFFFF" xlink:href="#path-1"></use>
                <path d="M190,100 C190,50.2943701 149.706864,10 100.002757,10 C50.2986504,10 10.0055149,50.2943701 10.0055149,100 C10.0055149,149.70563 50.2986504,190 100.002757,190 C149.706864,190 190,149.70563 190,100 Z" id="blue" fill="#0079CD" mask="url(#mask-2)" transform="translate(100.002757, 100.000000) scale(1, -1) translate(-100.002757, -100.000000) "></path>
                <polygon id="white" fill="#FFFFFF" mask="url(#mask-2)" transform="translate(99.994485, 92.500000) scale(1, -1) translate(-99.994485, -92.500000) " points="53.9944851 30 145.994485 30 99.9944851 155 53.9944851 30 53.9944851 30 53.9944851 30"></polygon>
                <polygon id="black" fill="#000000" mask="url(#mask-2)" points="70 140 130 140 100 58.5078125"></polygon>
                <polygon id="yellow" fill="#F2C500" mask="url(#mask-2)" points="54 154.996094 146 154.996094 100 114"></polygon>
            </g>
        </g>
    </g>
</svg>