<?xml version="1.0" encoding="UTF-8"?>
<svg width="200px" height="200px" viewBox="0 0 200 200" version="1.1" xmlns="http://www.w3.org/2000/svg" xmlns:xlink="http://www.w3.org/1999/xlink">
    <!-- Generator: Sketch 43.2 (39069) - http://www.bohemiancoding.com/sketch -->
    <title>thailand</title>
    <desc>Created with Sketch.</desc>
    <defs>
        <circle id="path-1" cx="100" cy="100" r="100"></circle>
    </defs>
    <g id="Page-1" stroke="none" stroke-width="1" fill="none" fill-rule="evenodd">
        <g id="flags" transform="translate(-170.000000, -5840.000000)">
            <g id="thailand" transform="translate(170.000000, 5840.000000)">
                <mask id="mask-2" fill="white">
                    <use xlink:href="#path-1"></use>
                </mask>
                <use id="border" fill="#FFFFFF" xlink:href="#path-1"></use>
                <circle id="white" fill="#FFFFFF" mask="url(#mask-2)" cx="100" cy="100" r="90"></circle>
                <path d="M167.083197,160 C150.603581,178.412481 126.654996,190 100,190 C73.3450038,190 49.3964193,178.412481 32.916803,160 L167.083197,160 L167.083197,160 L167.083197,160 L167.083197,160 L167.083197,160 Z M167.083197,40 C150.603581,21.5875189 126.654996,10 100,10 C73.3450038,10 49.3964193,21.5875189 32.916803,40 L167.083197,40 L167.083197,40 L167.083197,40 L167.083197,40 L167.083197,40 Z" id="red" fill="#FF0000" mask="url(#mask-2)"></path>
                <path d="M167.083197,160 C181.334394,144.077306 190,123.050634 190,100 C190,76.9493662 181.334394,55.9226944 167.083197,40 L32.916803,40 C18.6656062,55.9226944 10,76.9493662 10,100 C10,123.050634 18.6656062,144.077306 32.916803,160 L167.083197,160 L167.083197,160 L167.083197,160 L167.083197,160 L167.083197,160 Z" id="white" fill="#FFFFFF" mask="url(#mask-2)" transform="translate(100.000000, 100.000000) scale(1, -1) translate(-100.000000, -100.000000) "></path>
                <path d="M184.878829,130.000001 C188.195374,120.616633 190,110.519063 190,100 C190,89.480937 188.195374,79.3833673 184.878829,69.9999996 L15.121167,70 C11.8046265,79.3833673 10,89.480937 10,100 C10,110.519063 11.8046265,120.616633 15.1211708,130 L184.878833,130 L184.878833,130 L184.878829,130.000001 L184.878829,130.000001 L184.878829,130.000001 Z" id="blue" fill="#346DA6" mask="url(#mask-2)"></path>
            </g>
        </g>
    </g>
</svg>