<?xml version="1.0" encoding="UTF-8"?>
<svg width="200px" height="200px" viewBox="0 0 200 200" version="1.1" xmlns="http://www.w3.org/2000/svg" xmlns:xlink="http://www.w3.org/1999/xlink">
    <!-- Generator: Sketch 43.2 (39069) - http://www.bohemiancoding.com/sketch -->
    <title>united_arab_emirates_uae</title>
    <desc>Created with Sketch.</desc>
    <defs></defs>
    <g id="Page-1" stroke="none" stroke-width="1" fill="none" fill-rule="evenodd">
        <g id="flags" transform="translate(-1520.000000, -6110.000000)">
            <g id="united_arab_emirates_uae" transform="translate(1520.000000, 6110.000000)">
                <circle id="border" fill="#FFFFFF" cx="100" cy="100" r="100"></circle>
                <ellipse id="white" fill="#FFFFFF" cx="99.9972382" cy="100" rx="89.9972382" ry="90"></ellipse>
                <path d="M55,177.960402 L55,130 L184.873467,130 C172.51875,164.955772 139.182603,190 99.9972382,190 C83.6053894,190 68.237083,185.617562 55,177.960402 L55,177.960402 Z" id="black" fill="#000000"></path>
                <path d="M55,22.0395976 L55,70 L184.873467,70 C172.51875,35.0442275 139.182603,10 99.9972382,10 C83.6053894,10 68.237083,14.3824376 55,22.0395976 L55,22.0395976 Z" id="green" fill="#1AAF5D"></path>
                <path d="M10.0027619,99.2874328 L10.0027619,100.712567 C10.2587826,133.728868 28.2922227,162.512212 55.0027619,177.962 L55.0027619,22.038 C28.2922227,37.487788 10.2587826,66.2711321 10.0027619,99.2874328 L10.0027619,99.2874328 Z" id="red" fill="#FF0000"></path>
            </g>
        </g>
    </g>
</svg>