<?xml version="1.0" encoding="UTF-8"?>
<svg width="200px" height="200px" viewBox="0 0 200 200" version="1.1" xmlns="http://www.w3.org/2000/svg" xmlns:xlink="http://www.w3.org/1999/xlink">
    <!-- Generator: Sketch 43.2 (39069) - http://www.bohemiancoding.com/sketch -->
    <title>zimbabwe</title>
    <desc>Created with Sketch.</desc>
    <defs>
        <circle id="path-1" cx="100" cy="100" r="100"></circle>
    </defs>
    <g id="Page-1" stroke="none" stroke-width="1" fill="none" fill-rule="evenodd">
        <g id="flags" transform="translate(-2600.000000, -6380.000000)">
            <g id="zimbabwe" transform="translate(2600.000000, 6380.000000)">
                <mask id="mask-2" fill="white">
                    <use xlink:href="#path-1"></use>
                </mask>
                <use id="border" fill="#FFFFFF" xlink:href="#path-1"></use>
                <ellipse id="white" fill="#FFFFFF" mask="url(#mask-2)" cx="99.9972382" cy="100" rx="89.9972382" ry="90"></ellipse>
                <path d="M162.245017,165 L37.7494592,165 C53.914287,180.485497 75.8446804,190 99.9972382,190 C124.149796,190 146.080189,180.485497 162.245017,165 L162.245017,165 Z M37.7494592,35 L162.245017,35 C146.080189,19.5145033 124.149796,10 99.9972382,10 C75.8446804,10 53.914287,19.5145033 37.7494592,35 L37.7494592,35 Z" id="green" fill="#1AAF5D" mask="url(#mask-2)"></path>
                <path d="M162.245017,165 L37.7777778,165 L66.6666667,139 L181.128791,139 C176.419807,148.778829 169.995051,157.575663 162.245017,165 L162.245017,165 Z M181.128816,61 L66.6666667,61 L37.7777778,35 L162.245017,35 C169.995051,42.4243368 176.419807,51.2211713 181.128788,60.9999943 L181.128816,61 Z" id="yellow" fill="#F2C500" mask="url(#mask-2)"></path>
                <path d="M181.128816,139 L66.6666667,139 L95.5555556,113 L189.062526,113 C187.733094,122.189228 185.015332,130.929081 181.128788,139.000006 L181.128816,139 Z M189.062526,87 L95.5555556,87 L66.6666667,61 L181.128791,61 C185.015332,69.0709189 187.733094,77.8107721 189.062526,87 L189.062526,87 Z" id="red" fill="#FF0000" mask="url(#mask-2)"></path>
                <path d="M189.062526,113 L95.5555556,113 L110,100 L95.5555556,87 L189.062526,87 C189.676613,91.2446642 189.994476,95.5852105 189.994476,100 C189.994476,104.414789 189.676613,108.755336 189.062526,113 L189.062526,113 Z" id="black" fill="#000000" mask="url(#mask-2)"></path>
                <path d="M37.7631782,34.9868603 L110,100 L37.7631782,165.01314 C36.7162322,164.010613 35.6934573,162.983045 34.6958157,161.931399 L104,100 L34.6958157,38.0686013 C35.6934573,37.0169548 36.7162322,35.9893871 37.7631782,34.9868603 L37.7631782,34.9868603 Z" id="black" fill="#000000" mask="url(#mask-2)"></path>
                <polygon id="star" fill="#FF0000" mask="url(#mask-2)" points="49.9999992 115.25 29.4275178 125.60207 33.3565112 103.676035 16.7130217 88.1479314 39.7137614 84.9489631 50.0000004 65 60.2862457 84.948968 83.2869837 88.1479474 66.6434874 103.67604 70.5724815 125.602071"></polygon>
                <g id="bird" mask="url(#mask-2)">
                    <g transform="translate(34.000000, 73.000000)">
                        <path d="M40.320131,28.849251 C39.420245,27.949371 23.698712,16.303801 20.46971,13.974681 C17.240707,11.645571 16.340822,10.586881 16.340822,10.586881 C16.340822,10.586881 13.429427,5.346381 12.423672,3.811281 C11.417918,2.276181 9.565211,0.105871 7.130227,0.105871 C4.695242,0.105871 3.21318,1.535101 2.507353,4.075951 C2.119132,4.181821 0.037009,5.452451 0.107623,6.758031 C0.707582,6.687311 4.483608,5.628621 5.78929,9.898731 C7.095075,14.168841 7.165585,21.155981 5.824545,24.614501 C4.483504,28.073021 2.401485,30.684171 2.401485,33.719221 C2.401485,34.142691 2.683733,34.989641 3.38956,34.989641 C3.636553,36.330791 5.612807,45.894131 5.612807,45.894131 L33.774042,45.894131 L38.247003,28.602161" id="Shape" fill="#F2C500"></path>
                        <g id="border" stroke-width="1" fill="none">
                            <path d="M12.63541,19.109321 C14.611561,23.414581 15.105753,23.697041 20.046234,25.390941 C24.986715,27.084631 38.943835,28.690451 40.320131,28.849251 C39.420245,27.949371 23.698712,16.303801 20.46971,13.974681 C17.240707,11.645571 16.340822,10.586881 16.340822,10.586881 C16.340822,10.586881 13.429427,5.346381 12.423672,3.811281 C11.417918,2.276181 9.565211,0.105871 7.130227,0.105871 C4.695242,0.105871 3.21318,1.535101 2.507353,4.075951 C2.119132,4.181821 0.037009,5.452451 0.107623,6.758031 C0.707582,6.687311 4.483608,5.628621 5.78929,9.898731 C7.095075,14.168841 7.165585,21.155981 5.824545,24.614501 C4.483504,28.073021 2.401485,30.684171 2.401485,33.719221 C2.401485,34.142691 2.683733,34.989641 3.38956,34.989641 C3.636553,36.330791 5.612807,45.894131 5.612807,45.894131 L33.774042,45.894131 L38.247003,28.602161" id="Shape" stroke="#000000" stroke-width="0.2"></path>
                            <path d="M3.38956,34.989641 C3.38956,34.989641 9.388832,34.636881 11.012225,34.636881 C12.63541,34.636881 27.74613,34.655501 36.176976,36.604761" id="Shape" stroke="#000000" stroke-width="0.2"></path>
                            <path d="M5.508178,34.870751 C5.508178,34.870751 4.907083,34.142691 5.2952,32.695891 C5.683318,31.249081 9.918177,27.508111 9.918177,22.214871" id="Shape" stroke="#000000" stroke-width="0.2"></path>
                            <path d="M9.141736,34.636881 C9.141736,34.636881 8.64775,32.272411 14.047065,30.260901 C15.564587,29.802071 19.905007,27.367091 20.046234,25.390941" id="Shape" stroke="#000000" stroke-width="0.2"></path>
                            <path d="M13.473056,30.485261 C13.473056,30.485261 26.71639,30.543151 37.197205,32.660531" id="Shape" stroke="#000000" stroke-width="0.2"></path>
                            <path d="M16.792626,28.905291 C16.792626,28.905291 21.343128,29.060991 22.084211,28.849251 C22.825293,28.637511 24.137077,28.087081 24.658976,26.536061" id="Shape" stroke="#000000" stroke-width="0.2"></path>
                            <path d="M19.490423,28.959261 C19.490423,28.959261 21.924582,27.693791 22.401404,26.048281" id="Shape" stroke="#000000" stroke-width="0.2"></path>
                            <path d="M12.141424,45.4425827 C12.141424,45.4425827 11.100311,38.2261327 10.888574,34.1853327 L13.606013,36.7791227 L16.480809,34.2649427 L18.952392,36.9027727 L21.810027,34.4779227 L24.28099,37.2555327 L27.110918,34.8488827 L29.362698,37.4672727 L32.184976,35.4264027 L35.540109,38.6150827" id="Shape" stroke="#000000" stroke-width="0.2"></path>
                            <path d="M34.9508,41.345081 C24.870302,39.901381 11.380491,39.995051 11.380491,39.995051" id="Shape" stroke="#000000" stroke-width="0.2"></path>
                            <path d="M6.693931,15.052191 C6.693931,15.052191 14.89381,11.133801 16.340822,10.586881" id="Shape" stroke="#000000" stroke-width="0.2"></path>
                        </g>
                    </g>
                </g>
            </g>
        </g>
    </g>
</svg>