<?xml version="1.0" encoding="UTF-8"?>
<svg width="29px" height="28px" viewBox="0 0 29 28" version="1.1" xmlns="http://www.w3.org/2000/svg" xmlns:xlink="http://www.w3.org/1999/xlink">
    <!-- Generator: Sketch 49 (51002) - http://www.bohemiancoding.com/sketch -->
    <title>ic_logo</title>
    <desc>Created with Sketch.</desc>
    <defs></defs>
    <g id="Page-1" stroke="none" stroke-width="1" fill="none" fill-rule="evenodd">
        <g id="2---picture-infos" transform="translate(-210.000000, -40.000000)" fill="#020202" fill-rule="nonzero">
            <g id="Head" transform="translate(210.000000, 40.000000)">
                <g id="mustsee_logo">
                    <g id="Dark">
                        <g id="ic_logo">
                            <path d="M14.2330598,0.0486216216 C6.42437607,0.0486216216 0.0718290598,6.44037838 0.0718290598,14.2972162 C0.0718290598,20.5408378 4.04348718,26.0008378 9.95452991,27.8836486 C10.708735,28.1237297 11.5137094,27.7033514 11.7525128,26.9445135 C11.9911282,26.1860541 11.5736923,25.3761351 10.8194872,25.1362432 C6.10415385,23.6342703 2.93596581,19.2783784 2.93596581,14.297027 C2.93596581,8.02937838 8.00405128,2.93016216 14.2332479,2.93016216 C20.4630085,2.93016216 25.530906,8.02937838 25.530906,14.297027 C25.530906,19.2783784 22.3627179,23.6342703 17.6475726,25.1362432 C16.8931795,25.3761351 16.4759316,26.1860541 16.714359,26.9445135 C16.9076581,27.5588108 17.4713846,27.951 18.0792991,27.951 C18.2223932,27.951 18.3681197,27.9292432 18.5117778,27.8836486 C24.4231966,26.0008378 28.3948547,20.5408378 28.3948547,14.2972162 C28.3948547,6.44037838 22.0419316,0.0486216216 14.2330598,0.0486216216 Z" id="Shape"></path>
                            <path d="M22.462,14.297027 C22.462,12.0857838 21.6062564,10.0064054 20.0517778,8.44294595 C18.4978632,6.87910811 16.4313675,6.01791892 14.2330598,6.01791892 C12.0353162,6.01791892 9.96900855,6.87910811 8.41509402,8.44294595 C6.86061538,10.0064054 6.00430769,12.0857838 6.00430769,14.297027 C6.00430769,16.5088378 6.86061538,18.5878378 8.41509402,20.1514865 C9.96900855,21.7155135 12.0353162,22.5768919 14.2330598,22.5768919 C16.4313675,22.5768919 18.4978632,21.7153243 20.0517778,20.1516757 C21.6062564,18.5878378 22.462,16.5088378 22.462,14.297027 Z M18.0264615,18.1141081 C17.0131453,19.1334595 15.6664444,19.6947838 14.2330598,19.6947838 C12.8002393,19.6947838 11.4529744,19.1332703 10.4404103,18.1139189 C9.42652991,17.0941892 8.86882051,15.739027 8.86882051,14.297027 C8.86882051,12.8557838 9.42652991,11.5000541 10.4404103,10.4807027 C11.4535385,9.46135135 12.8004274,8.89983784 14.2330598,8.89983784 C15.6664444,8.89983784 17.0131453,9.46135135 18.0264615,10.4807027 C19.0401538,11.5000541 19.5980513,12.8557838 19.5980513,14.297027 C19.5980513,15.739027 19.0401538,17.0941892 18.0264615,18.1141081 Z" id="Shape"></path>
                            <path d="M14.2330598,11.8763514 C13.590359,11.8763514 12.9860171,12.127973 12.5317265,12.5854324 C12.0774359,13.0427027 11.8271624,13.6503784 11.8271624,14.297027 C11.8265983,14.9442432 12.0770598,15.5522973 12.5317265,16.0091892 C12.9860171,16.4668378 13.590359,16.7184595 14.2330598,16.7184595 C14.8757607,16.7184595 15.4801026,16.4668378 15.9349573,16.0091892 C16.3892479,15.5519189 16.6395214,14.9442432 16.6395214,14.2972162 C16.6395214,13.6503784 16.3892479,13.0423243 15.9343932,12.5852432 C15.4801026,12.127973 14.8757607,11.8763514 14.2330598,11.8763514 Z" id="Shape"></path>
                        </g>
                    </g>
                </g>
            </g>
        </g>
    </g>
</svg>