<?xml version="1.0" encoding="UTF-8"?>
<svg width="12px" height="12px" viewBox="0 0 12 12" version="1.1" xmlns="http://www.w3.org/2000/svg" xmlns:xlink="http://www.w3.org/1999/xlink">
    <!-- Generator: Sketch 49 (51002) - http://www.bohemiancoding.com/sketch -->
    <title>ic_close</title>
    <desc>Created with Sketch.</desc>
    <defs></defs>
    <g id="Index" stroke="none" stroke-width="1" fill="none" fill-rule="evenodd">
        <g id="System-icons---navigation" transform="translate(-366.000000, -107.000000)" fill="#FFFFFF">
            <g id="icons" transform="translate(0.000000, 101.000000)">
                <g id="ic_close" transform="translate(360.000000, 0.000000)">
                    <polygon points="7.35621683 18 6 16.6437832 10.6575649 11.9862182 6.01050628 7.33915957 7.34966585 6 11.9967245 10.6470587 16.6375206 6.00626257 17.9937374 7.36247939 13.3529413 12.0032755 17.9871859 16.6375212 16.6480269 17.9766802 12.0137812 13.3424356"></polygon>
                </g>
            </g>
        </g>
    </g>
</svg>