<?xml version="1.0" encoding="UTF-8"?>
<svg width="15px" height="12px" viewBox="0 0 15 12" version="1.1" xmlns="http://www.w3.org/2000/svg" xmlns:xlink="http://www.w3.org/1999/xlink">
    <!-- Generator: Sketch 49 (51002) - http://www.bohemiancoding.com/sketch -->
    <title>ic_photographer</title>
    <desc>Created with Sketch.</desc>
    <defs></defs>
    <g id="Index" stroke="none" stroke-width="1" fill="none" fill-rule="evenodd" stroke-linecap="round" stroke-linejoin="round">
        <g id="System-icons---navigation" transform="translate(-293.000000, -107.000000)" stroke="#FFFFFF">
            <g id="icons" transform="translate(0.000000, 101.000000)">
                <g id="ic_photograper" transform="translate(288.000000, 0.000000)">
                    <g id="ic_photographer" transform="translate(6.000000, 7.000000)">
                        <path d="M6.15384615,6.92307692 C5.30423077,6.92307692 4.61538462,6.23432755 4.61538462,5.38461538 C4.61538462,4.53490322 5.30423077,3.84615385 6.15384615,3.84615385 C7.00346154,3.84615385 7.69230769,4.53490322 7.69230769,5.38461538 C7.69230769,6.23432755 7.00346154,6.92307692 6.15384615,6.92307692 Z" id="Stroke-142" fill="#FFFFFF"></path>
                        <polygon id="Stroke-144" stroke-width="2" points="3.26007326 1.53846154 0 1.53846154 0 10 12.3076923 10 12.3076923 1.53846154 9.37728938 1.53846154 8.24175824 0 4.13919414 0"></polygon>
                    </g>
                </g>
            </g>
        </g>
    </g>
</svg>